datasetName,queryId,answerId,distance,time,totalTime,seriesCompared,totalSeriesCompared,leavesVisited,totalLeavesVisited
seismic,0,0,323.002594,1049.000000,110991822.000000,649,100000649,1,118135
seismic,0,1,307.665009,20112.000000,110991822.000000,2205,100000649,3,118135
seismic,0,2,298.027374,27456.000000,110991822.000000,7288,100000649,9,118135
seismic,0,3,274.918457,30241.000000,110991822.000000,9259,100000649,12,118135
seismic,0,4,241.085327,90226.000000,110991822.000000,56278,100000649,75,118135
seismic,0,bestNN,200.870758,690472.000000,110991822.000000,673964,100000649,1119,118135
seismic,1,0,372.270386,645.000000,97972947.000000,602,100000602,1,118135
seismic,1,1,328.441559,19781.000000,97972947.000000,1949,100000602,3,118135
seismic,1,2,301.454559,24958.000000,97972947.000000,7122,100000602,8,118135
seismic,1,3,278.811798,44224.000000,97972947.000000,26589,100000602,28,118135
seismic,1,4,268.948120,97388.000000,97972947.000000,81113,100000602,83,118135
seismic,1,5,260.463409,779807.000000,97972947.000000,782933,100000602,906,118135
seismic,1,6,257.972443,21144031.000000,97972947.000000,21439243,100000602,31041,118135
seismic,1,bestNN,251.094391,47750505.000000,97972947.000000,48289770,100000602,69750,118135
seismic,2,0,300.789246,1088.000000,93260195.000000,1064,99987203,1,118102
seismic,2,1,280.454987,19601.000000,93260195.000000,3811,99987203,3,118102
seismic,2,2,276.877777,25679.000000,93260195.000000,10131,99987203,7,118102
seismic,2,3,247.174576,26180.000000,93260195.000000,10643,99987203,8,118102
seismic,2,4,227.466171,31387.000000,93260195.000000,16147,99987203,12,118102
seismic,2,5,216.305542,518378.000000,93260195.000000,536890,99987203,410,118102
seismic,2,bestNN,195.187103,25453392.000000,93260195.000000,26586306,99987203,38209,118102
seismic,3,0,293.796967,947.000000,96737925.000000,896,99996313,1,118126
seismic,3,1,291.839874,26093.000000,96737925.000000,8581,99996313,7,118126
seismic,3,2,260.333527,29901.000000,96737925.000000,12337,99996313,10,118126
seismic,3,3,256.866425,227080.000000,96737925.000000,212138,99996313,163,118126
seismic,3,4,256.555939,365906.000000,96737925.000000,352564,99996313,279,118126
seismic,3,5,249.028854,1979078.000000,96737925.000000,1986971,99996313,1783,118126
seismic,3,bestNN,225.320816,6875114.000000,96737925.000000,6910493,99996313,7008,118126
seismic,4,0,219.837662,1728.000000,86039244.000000,1767,95577355,1,114142
seismic,4,1,219.746094,20979.000000,86039244.000000,5476,95577355,3,114142
seismic,4,2,218.968658,24322.000000,86039244.000000,8777,95577355,5,114142
seismic,4,3,212.700424,30529.000000,86039244.000000,15015,95577355,9,114142
seismic,4,4,207.529800,37202.000000,86039244.000000,21699,95577355,14,114142
seismic,4,5,204.488098,53096.000000,86039244.000000,38080,95577355,27,114142
seismic,4,6,201.507767,58751.000000,86039244.000000,43821,95577355,33,114142
seismic,4,7,196.527756,68259.000000,86039244.000000,53528,95577355,41,114142
seismic,4,8,191.748520,498406.000000,86039244.000000,510793,95577355,458,114142
seismic,4,bestNN,183.683197,908342.000000,86039244.000000,950052,95577355,889,114142
seismic,5,0,68.323509,688.000000,21327939.000000,706,24486800,1,28139
seismic,5,1,65.851952,21652.000000,21327939.000000,3303,24486800,3,28139
seismic,5,2,65.644081,139213.000000,21327939.000000,135787,24486800,129,28139
seismic,5,bestNN,64.686829,168760.000000,21327939.000000,168497,24486800,158,28139
seismic,6,0,322.081726,1212.000000,94953412.000000,1171,100001171,1,118135
seismic,6,1,290.764801,15205.000000,94953412.000000,4228,100001171,3,118135
seismic,6,2,279.366119,18020.000000,94953412.000000,7069,100001171,5,118135
seismic,6,3,268.754395,24905.000000,94953412.000000,14055,100001171,18,118135
seismic,6,4,267.425598,31651.000000,94953412.000000,20994,100001171,27,118135
seismic,6,5,264.247406,89821.000000,94953412.000000,80898,100001171,96,118135
seismic,6,6,261.844116,108877.000000,94953412.000000,100547,100001171,126,118135
seismic,6,7,257.341675,415825.000000,94953412.000000,417888,100001171,515,118135
seismic,6,8,255.208862,490204.000000,94953412.000000,495275,100001171,625,118135
seismic,6,9,247.016632,543373.000000,94953412.000000,550789,100001171,683,118135
seismic,6,bestNN,218.496552,821006.000000,94953412.000000,841296,100001171,1056,118135
seismic,7,0,331.965576,1351.000000,97707914.000000,1289,100001289,1,118135
seismic,7,1,325.101654,23393.000000,97707914.000000,5155,100001289,4,118135
seismic,7,2,321.935944,31774.000000,97707914.000000,13448,100001289,10,118135
seismic,7,3,316.747375,36934.000000,97707914.000000,18445,100001289,13,118135
seismic,7,4,312.000366,44266.000000,97707914.000000,25642,100001289,18,118135
seismic,7,5,300.113342,49026.000000,97707914.000000,30424,100001289,21,118135
seismic,7,6,300.071198,102618.000000,97707914.000000,83840,100001289,57,118135
seismic,7,7,295.932556,186792.000000,97707914.000000,168377,100001289,120,118135
seismic,7,8,291.528534,511068.000000,97707914.000000,496802,100001289,402,118135
seismic,7,9,291.522278,663811.000000,97707914.000000,652019,100001289,575,118135
seismic,7,10,289.419647,690626.000000,97707914.000000,679218,100001289,605,118135
seismic,7,11,283.295929,948453.000000,97707914.000000,942144,100001289,874,118135
seismic,7,12,263.824432,1726155.000000,97707914.000000,1741226,100001289,1650,118135
seismic,7,13,261.058014,2145691.000000,97707914.000000,2177948,100001289,2115,118135
seismic,7,bestNN,259.118866,4953467.000000,97707914.000000,5109119,100001289,5637,118135
seismic,8,0,333.855316,585.000000,93230643.000000,553,100000508,1,118134
seismic,8,1,331.268951,14223.000000,93230643.000000,2880,100000508,3,118134
seismic,8,2,268.738220,16579.000000,93230643.000000,5200,100000508,5,118134
seismic,8,3,264.382660,247230.000000,93230643.000000,244384,100000508,190,118134
seismic,8,4,260.291046,632362.000000,93230643.000000,645462,100000508,560,118134
seismic,8,5,258.917389,829657.000000,93230643.000000,852838,100000508,722,118134
seismic,8,6,250.489304,844749.000000,93230643.000000,868676,100000508,735,118134
seismic,8,7,239.462524,1725486.000000,93230643.000000,1798004,100000508,1605,118134
seismic,8,bestNN,222.734970,2080545.000000,93230643.000000,2177985,100000508,1988,118134
seismic,9,0,429.814514,132.000000,91548420.000000,109,99997430,1,118130
seismic,9,1,329.626740,12524.000000,91548420.000000,783,99997430,3,118130
seismic,9,2,300.549744,13333.000000,91548420.000000,1587,99997430,5,118130
seismic,9,3,267.594452,16153.000000,91548420.000000,4476,99997430,11,118130
seismic,9,4,256.748383,21337.000000,91548420.000000,9880,99997430,21,118130
seismic,9,5,240.650497,23728.000000,91548420.000000,12337,99997430,25,118130
seismic,9,6,239.257141,125066.000000,91548420.000000,120080,99997430,181,118130
seismic,9,7,237.952057,186806.000000,91548420.000000,185738,99997430,289,118130
seismic,9,8,231.107513,234883.000000,91548420.000000,237411,99997430,340,118130
seismic,9,9,205.445374,441506.000000,91548420.000000,459271,99997430,630,118130
seismic,9,10,201.267380,2105107.000000,91548420.000000,2273183,99997430,3467,118130
seismic,9,bestNN,197.162048,3585055.000000,91548420.000000,3895575,99997430,5959,118130
seismic,10,0,300.090210,476.000000,93591773.000000,461,100000461,1,118135
seismic,10,1,277.322235,16255.000000,93591773.000000,1515,100000461,3,118135
seismic,10,2,255.604813,22353.000000,93591773.000000,7825,100000461,13,118135
seismic,10,3,254.638443,39474.000000,93591773.000000,25829,100000461,40,118135
seismic,10,4,249.197113,210891.000000,93591773.000000,206110,100000461,337,118135
seismic,10,5,237.434723,630213.000000,93591773.000000,648400,100000461,1142,118135
seismic,10,bestNN,226.790115,9392119.000000,93591773.000000,9717203,100000461,15487,118135
seismic,11,0,322.198853,851.000000,96408361.000000,809,99992226,1,118112
seismic,11,1,307.075897,20739.000000,96408361.000000,2990,99992226,3,118112
seismic,11,2,279.141418,22515.000000,96408361.000000,4774,99992226,4,118112
seismic,11,3,269.756195,35966.000000,96408361.000000,18317,99992226,16,118112
seismic,11,4,267.426636,57969.000000,96408361.000000,40738,99992226,36,118112
seismic,11,5,265.770630,83128.000000,96408361.000000,66435,99992226,56,118112
seismic,11,6,239.959564,352711.000000,96408361.000000,341995,99992226,308,118112
seismic,11,7,233.329315,2398915.000000,96408361.000000,2469805,99992226,2527,118112
seismic,11,bestNN,224.488327,22000915.000000,96408361.000000,22695635,99992226,29343,118112
seismic,12,0,312.281616,599.000000,93412892.000000,573,99172502,1,117405
seismic,12,1,295.505981,13138.000000,93412892.000000,1716,99172502,3,117405
seismic,12,2,282.146729,13720.000000,93412892.000000,2265,99172502,4,117405
seismic,12,3,267.350830,25610.000000,93412892.000000,14099,99172502,21,117405
seismic,12,4,265.203186,47311.000000,93412892.000000,35879,99172502,43,117405
seismic,12,5,242.721191,70458.000000,93412892.000000,59238,99172502,67,117405
seismic,12,6,233.853409,145327.000000,93412892.000000,136514,99172502,143,117405
seismic,12,bestNN,212.866867,1542094.000000,93412892.000000,1596687,99172502,1801,117405
seismic,13,0,267.905457,1184.000000,95827645.000000,1124,99983923,1,118096
seismic,13,1,261.149506,18442.000000,95827645.000000,7070,99983923,6,118096
seismic,13,2,234.212082,122725.000000,95827645.000000,114891,99983923,78,118096
seismic,13,3,227.625748,297395.000000,95827645.000000,299138,99983923,211,118096
seismic,13,4,212.788437,368418.000000,95827645.000000,374222,99983923,279,118096
seismic,13,5,211.668716,1883891.000000,95827645.000000,2000385,99983923,1721,118096
seismic,13,6,201.968948,4759289.000000,95827645.000000,5088637,99983923,5020,118096
seismic,13,bestNN,198.365585,19526911.000000,95827645.000000,20119704,99983923,26482,118096
seismic,14,0,203.989655,1180.000000,82843391.000000,1166,90170040,1,109405
seismic,14,1,203.125656,16353.000000,82843391.000000,3321,90170040,3,109405
seismic,14,2,195.729401,18836.000000,82843391.000000,5750,90170040,6,109405
seismic,14,3,187.100021,21050.000000,82843391.000000,7899,90170040,9,109405
seismic,14,4,172.641449,22872.000000,82843391.000000,9690,90170040,11,109405
seismic,14,5,171.093185,87859.000000,82843391.000000,77117,90170040,69,109405
seismic,14,6,167.584335,95918.000000,82843391.000000,84973,90170040,75,109405
seismic,14,7,166.849411,149580.000000,82843391.000000,140309,90170040,132,109405
seismic,14,8,158.817398,155747.000000,82843391.000000,146667,90170040,138,109405
seismic,14,9,155.765976,160286.000000,82843391.000000,151358,90170040,143,109405
seismic,14,10,151.035736,339224.000000,82843391.000000,336616,90170040,302,109405
seismic,14,11,147.313217,369301.000000,82843391.000000,367422,90170040,330,109405
seismic,14,12,147.200562,401023.000000,82843391.000000,399831,90170040,358,109405
seismic,14,bestNN,139.390198,1097108.000000,82843391.000000,1122698,90170040,971,109405
seismic,15,0,317.320099,712.000000,97616497.000000,669,100000669,1,118135
seismic,15,1,304.894440,18808.000000,97616497.000000,3916,100000669,4,118135
seismic,15,2,286.910126,20291.000000,97616497.000000,5399,100000669,5,118135
seismic,15,3,276.619385,31930.000000,97616497.000000,17045,100000669,15,118135
seismic,15,4,261.359680,58234.000000,97616497.000000,43591,100000669,43,118135
seismic,15,5,253.369354,69332.000000,97616497.000000,54854,100000669,55,118135
seismic,15,6,241.938675,1567717.000000,97616497.000000,1588329,100000669,1679,118135
seismic,15,7,232.649811,2876603.000000,97616497.000000,2935031,100000669,3325,118135
seismic,15,8,224.302887,13808696.000000,97616497.000000,13953650,100000669,18012,118135
seismic,15,bestNN,223.086487,15260482.000000,97616497.000000,15466999,100000669,20219,118135
seismic,16,0,121.086349,1270.000000,39110581.000000,1321,43879800,1,54893
seismic,16,1,103.251572,22063.000000,39110581.000000,3933,43879800,3,54893
seismic,16,2,98.075089,25284.000000,39110581.000000,7334,43879800,6,54893
seismic,16,3,97.761116,26081.000000,39110581.000000,8145,43879800,7,54893
seismic,16,4,96.427505,27289.000000,39110581.000000,9379,43879800,8,54893
seismic,16,5,92.742287,28407.000000,39110581.000000,10512,43879800,9,54893
seismic,16,6,92.424873,34412.000000,39110581.000000,16827,43879800,16,54893
seismic,16,bestNN,89.047546,44347.000000,39110581.000000,27239,43879800,24,54893
seismic,17,0,381.506439,1102.000000,103897583.000000,1027,100001027,1,118135
seismic,17,1,370.794891,14702.000000,103897583.000000,3286,100001027,4,118135
seismic,17,2,363.989655,15392.000000,103897583.000000,3955,100001027,5,118135
seismic,17,3,344.759796,28781.000000,103897583.000000,16692,100001027,24,118135
seismic,17,4,336.566711,250644.000000,103897583.000000,232710,100001027,301,118135
seismic,17,bestNN,332.615173,13583820.000000,103897583.000000,12842886,100001027,17767,118135
seismic,18,0,263.021790,883.000000,93110156.000000,830,99987434,1,118109
seismic,18,1,256.183044,20007.000000,93110156.000000,2185,99987434,3,118109
seismic,18,2,253.572540,20837.000000,93110156.000000,3018,99987434,4,118109
seismic,18,3,250.206558,23177.000000,93110156.000000,5359,99987434,8,118109
seismic,18,4,242.374710,32222.000000,93110156.000000,14417,99987434,23,118109
seismic,18,5,227.725891,36665.000000,93110156.000000,18930,99987434,29,118109
seismic,18,6,186.711319,92984.000000,93110156.000000,76648,99987434,134,118109
seismic,18,bestNN,180.214066,11438274.000000,93110156.000000,11857302,99987434,18058,118109
seismic,19,0,331.630920,484.000000,96384549.000000,453,100000453,1,118135
seismic,19,1,292.349915,13143.000000,96384549.000000,1867,100000453,3,118135
seismic,19,2,280.552246,18957.000000,96384549.000000,7701,100000453,14,118135
seismic,19,3,257.975464,64107.000000,96384549.000000,53583,100000453,75,118135
seismic,19,4,251.699158,90045.000000,96384549.000000,80361,100000453,111,118135
seismic,19,5,239.479752,427350.000000,96384549.000000,431061,100000453,478,118135
seismic,19,6,237.199539,4454817.000000,96384549.000000,4633334,100000453,6210,118135
seismic,19,bestNN,231.618591,6613169.000000,96384549.000000,6890459,100000453,9248,118135
seismic,20,0,300.273499,1636.000000,96010066.000000,1616,99599249,1,117761
seismic,20,1,296.569458,16157.000000,96010066.000000,4896,99599249,3,117761
seismic,20,2,292.113251,19268.000000,96010066.000000,8025,99599249,5,117761
seismic,20,3,283.757812,20745.000000,96010066.000000,9521,99599249,6,117761
seismic,20,4,268.693237,27113.000000,96010066.000000,15962,99599249,10,117761
seismic,20,5,265.222229,34727.000000,96010066.000000,23718,99599249,16,117761
seismic,20,6,260.447632,113189.000000,96010066.000000,103663,99599249,72,117761
seismic,20,7,235.562012,264591.000000,96010066.000000,258002,99599249,186,117761
seismic,20,bestNN,219.254929,395466.000000,96010066.000000,393924,99599249,287,117761
seismic,21,0,324.864777,2048.000000,96985707.000000,1954,100001954,1,118135
seismic,21,1,321.110748,19671.000000,96985707.000000,7376,100001954,4,118135
seismic,21,2,311.990448,24858.000000,96985707.000000,12443,100001954,7,118135
seismic,21,3,307.905060,38822.000000,96985707.000000,26206,100001954,17,118135
seismic,21,4,277.477081,86383.000000,96985707.000000,73192,100001954,52,118135
seismic,21,5,264.952698,179215.000000,96985707.000000,166651,100001954,130,118135
seismic,21,6,242.481735,1345647.000000,96985707.000000,1355453,100001954,1318,118135
seismic,21,7,239.797241,4731026.000000,96985707.000000,4862453,100001954,5544,118135
seismic,21,bestNN,236.373718,10661011.000000,96985707.000000,10717591,100001954,13526,118135
seismic,22,0,216.795120,1158.000000,85684896.000000,1101,92183585,1,111145
seismic,22,1,213.077515,17480.000000,85684896.000000,3320,92183585,3,111145
seismic,22,2,194.916168,23620.000000,85684896.000000,9354,92183585,8,111145
seismic,22,3,188.852997,27977.000000,85684896.000000,13634,92183585,11,111145
seismic,22,4,186.848358,37830.000000,85684896.000000,23245,92183585,17,111145
seismic,22,5,181.137421,78188.000000,85684896.000000,63400,92183585,54,111145
seismic,22,6,178.745804,137232.000000,85684896.000000,122306,92183585,108,111145
seismic,22,7,173.427170,240478.000000,85684896.000000,225200,92183585,201,111145
seismic,22,bestNN,167.892258,654849.000000,85684896.000000,647016,92183585,564,111145
seismic,23,0,268.910583,1379.000000,91388349.000000,1354,97587861,1,116006
seismic,23,1,264.485626,21479.000000,91388349.000000,4469,97587861,3,116006
seismic,23,2,257.238159,26666.000000,91388349.000000,9622,97587861,7,116006
seismic,23,3,246.096985,33254.000000,91388349.000000,16224,97587861,12,116006
seismic,23,4,242.073593,35877.000000,91388349.000000,18827,97587861,14,116006
seismic,23,5,238.164963,49023.000000,91388349.000000,32134,97587861,23,116006
seismic,23,6,220.886810,50529.000000,91388349.000000,33678,97587861,24,116006
seismic,23,7,202.575165,62049.000000,91388349.000000,45610,97587861,32,116006
seismic,23,bestNN,196.907516,255523.000000,91388349.000000,251568,97587861,204,116006
seismic,24,0,324.866821,371.000000,95005030.000000,296,99997617,1,118130
seismic,24,1,309.912354,18016.000000,95005030.000000,1083,99997617,3,118130
seismic,24,2,232.947922,18632.000000,95005030.000000,1609,99997617,4,118130
seismic,24,bestNN,197.548172,1392427.000000,95005030.000000,1332632,99997617,1705,118130
seismic,25,0,272.597778,596.000000,90928665.000000,585,99977531,1,118089
seismic,25,1,243.876572,13955.000000,90928665.000000,2772,99977531,3,118089
seismic,25,2,208.681168,34107.000000,90928665.000000,24000,99977531,23,118089
seismic,25,3,205.829453,963741.000000,90928665.000000,1033762,99977531,1307,118089
seismic,25,4,189.499390,1082834.000000,90928665.000000,1163338,99977531,1505,118089
seismic,25,bestNN,173.666275,31790829.000000,90928665.000000,34403780,99977531,51537,118089
seismic,26,0,218.416870,1715.000000,93262671.000000,1578,97805214,1,116148
seismic,26,1,206.563385,24053.000000,93262671.000000,9167,97805214,7,116148
seismic,26,bestNN,199.749268,398182.000000,93262671.000000,385420,97805214,344,116148
seismic,27,0,235.480255,1275.000000,92025708.000000,1273,99106852,1,117324
seismic,27,1,235.407211,22005.000000,92025708.000000,5877,99106852,4,117324
seismic,27,2,235.127090,26919.000000,92025708.000000,11016,99106852,8,117324
seismic,27,3,230.221619,42462.000000,92025708.000000,27435,99106852,24,117324
seismic,27,4,220.958496,220107.000000,92025708.000000,216231,99106852,200,117324
seismic,27,bestNN,210.490997,222513.000000,92025708.000000,218788,99106852,202,117324
seismic,28,0,340.211548,1448.000000,96966864.000000,1341,100001341,1,118135
seismic,28,1,336.787476,15124.000000,96966864.000000,3720,100001341,3,118135
seismic,28,2,321.630219,16066.000000,96966864.000000,4612,100001341,4,118135
seismic,28,3,311.871582,17615.000000,96966864.000000,6115,100001341,5,118135
seismic,28,4,295.500977,19788.000000,96966864.000000,8237,100001341,7,118135
seismic,28,5,292.897797,26772.000000,96966864.000000,15181,100001341,13,118135
seismic,28,6,283.305664,64349.000000,96966864.000000,52495,100001341,44,118135
seismic,28,7,282.052460,129258.000000,96966864.000000,117433,100001341,97,118135
seismic,28,8,277.461578,196754.000000,96966864.000000,184660,100001341,147,118135
seismic,28,9,267.209717,267634.000000,96966864.000000,255963,100001341,202,118135
seismic,28,10,253.637360,291597.000000,96966864.000000,280191,100001341,221,118135
seismic,28,11,250.752472,693739.000000,96966864.000000,692284,100001341,541,118135
seismic,28,12,237.651642,817024.000000,96966864.000000,818932,100001341,646,118135
seismic,28,bestNN,232.501007,9376886.000000,96966864.000000,9677296,100001341,10632,118135
seismic,29,0,356.954681,1491.000000,98519810.000000,1379,100001379,1,118135
seismic,29,1,311.368683,20244.000000,98519810.000000,8214,100001379,6,118135
seismic,29,2,294.780640,93391.000000,98519810.000000,80368,100001379,56,118135
seismic,29,3,292.543457,462189.000000,98519810.000000,448744,100001379,338,118135
seismic,29,bestNN,262.089844,777484.000000,98519810.000000,764766,100001379,587,118135
seismic,30,0,128.469559,1259.000000,69003200.000000,1231,75985741,1,96304
seismic,30,bestNN,126.049736,41103.000000,69003200.000000,31024,75985741,21,96304
seismic,31,0,337.487579,1397.000000,94262849.000000,1153,99942764,1,118073
seismic,31,1,325.523590,26206.000000,94262849.000000,4241,99942764,3,118073
seismic,31,2,299.155731,29400.000000,94262849.000000,6981,99942764,5,118073
seismic,31,3,296.011566,33632.000000,94262849.000000,10635,99942764,9,118073
seismic,31,4,294.753845,75149.000000,94262849.000000,46599,99942764,43,118073
seismic,31,5,276.693085,92518.000000,94262849.000000,61668,99942764,62,118073
seismic,31,6,268.906189,244900.000000,94262849.000000,195379,99942764,227,118073
seismic,31,7,260.518799,278951.000000,94262849.000000,225444,99942764,269,118073
seismic,31,8,259.125885,1629626.000000,94262849.000000,1516874,99942764,1998,118073
seismic,31,9,256.437378,1809649.000000,94262849.000000,1701744,99942764,2244,118073
seismic,31,10,251.182175,3398040.000000,94262849.000000,3335847,99942764,4517,118073
seismic,31,11,229.731735,3773165.000000,94262849.000000,3723981,99942764,5064,118073
seismic,31,12,223.322998,20708810.000000,94262849.000000,21509908,99942764,29069,118073
seismic,31,bestNN,201.676117,24775637.000000,94262849.000000,25498660,99942764,34921,118073
seismic,32,0,339.942139,588.000000,96958935.000000,561,100000561,1,118135
seismic,32,1,320.663574,14384.000000,96958935.000000,3086,100000561,3,118135
seismic,32,2,304.202332,16432.000000,96958935.000000,5133,100000561,6,118135
seismic,32,3,290.241089,24206.000000,96958935.000000,13026,100000561,12,118135
seismic,32,4,283.826447,74427.000000,96958935.000000,64259,100000561,72,118135
seismic,32,5,283.821686,219695.000000,96958935.000000,213012,100000561,244,118135
seismic,32,6,271.882019,475660.000000,96958935.000000,474127,100000561,619,118135
seismic,32,7,263.156830,813517.000000,96958935.000000,777252,100000561,1084,118135
seismic,32,bestNN,258.759827,6703530.000000,96958935.000000,6639779,100000561,9635,118135
seismic,33,0,147.402664,1854.000000,76069646.000000,1736,85133057,1,104963
seismic,33,1,146.982651,22792.000000,76069646.000000,5334,85133057,5,104963
seismic,33,bestNN,137.562775,23778.000000,76069646.000000,6238,85133057,6,104963
seismic,34,0,234.043884,644.000000,89988007.000000,623,99681113,1,117786
seismic,34,1,232.268661,13736.000000,89988007.000000,1902,99681113,3,117786
seismic,34,2,159.703079,14518.000000,89988007.000000,2729,99681113,4,117786
seismic,34,3,152.919800,195993.000000,89988007.000000,204992,99681113,320,117786
seismic,34,bestNN,149.072815,4133093.000000,89988007.000000,4623042,99681113,7142,117786
seismic,35,0,288.751434,1383.000000,90630108.000000,1327,97795583,1,116081
seismic,35,1,287.459381,22030.000000,90630108.000000,3975,97795583,3,116081
seismic,35,2,262.816345,25816.000000,90630108.000000,7813,97795583,6,116081
seismic,35,3,229.254105,30006.000000,90630108.000000,12133,97795583,10,116081
seismic,35,4,205.570175,82901.000000,90630108.000000,67903,97795583,50,116081
seismic,35,bestNN,201.431671,502165.000000,90630108.000000,521721,97795583,427,116081
seismic,36,0,307.005035,1623.000000,99648925.000000,1567,100001567,1,118135
seismic,36,1,298.902893,17716.000000,99648925.000000,6007,100001567,4,118135
seismic,36,2,290.505737,20807.000000,99648925.000000,9058,100001567,7,118135
seismic,36,3,283.336578,26928.000000,99648925.000000,15130,100001567,14,118135
seismic,36,4,263.173370,62683.000000,99648925.000000,50694,100001567,67,118135
seismic,36,5,262.582306,70161.000000,99648925.000000,58251,100001567,78,118135
seismic,36,6,260.935913,963297.000000,99648925.000000,959264,100001567,1732,118135
seismic,36,7,259.979401,2005388.000000,99648925.000000,2014818,100001567,3516,118135
seismic,36,bestNN,258.562683,47365031.000000,99648925.000000,47075260,100001567,67787,118135
seismic,37,0,267.139282,1259.000000,95317050.000000,1208,100001163,1,118134
seismic,37,1,253.355713,22491.000000,95317050.000000,11119,100001163,12,118134
seismic,37,2,245.566345,270956.000000,95317050.000000,270288,100001163,352,118134
seismic,37,3,233.512070,636268.000000,95317050.000000,652503,100001163,915,118134
seismic,37,4,229.067261,1956883.000000,95317050.000000,2046720,100001163,2962,118134
seismic,37,5,227.017822,3135428.000000,95317050.000000,3295154,100001163,4761,118134
seismic,37,bestNN,212.963303,12190923.000000,95317050.000000,12286709,100001163,17447,118134
seismic,38,0,252.481094,698.000000,94099251.000000,638,98806768,1,117011
seismic,38,1,243.635483,22140.000000,94099251.000000,8869,98806768,7,117011
seismic,38,2,242.342148,40056.000000,94099251.000000,26856,98806768,23,117011
seismic,38,3,237.862442,137839.000000,94099251.000000,125138,98806768,103,117011
seismic,38,4,234.708588,171941.000000,94099251.000000,159493,98806768,133,117011
seismic,38,5,227.205917,294567.000000,94099251.000000,284488,98806768,232,117011
seismic,38,bestNN,222.464340,9106332.000000,94099251.000000,9162312,98806768,10772,117011
seismic,39,0,322.018372,1661.000000,95480000.000000,1583,100001538,1,118134
seismic,39,1,299.501617,19771.000000,95480000.000000,4535,100001538,3,118134
seismic,39,2,287.823334,23556.000000,95480000.000000,8317,100001538,6,118134
seismic,39,3,273.281708,33732.000000,95480000.000000,18592,100001538,13,118134
seismic,39,4,248.419693,61347.000000,95480000.000000,46797,100001538,31,118134
seismic,39,5,242.531860,270651.000000,95480000.000000,263534,100001538,203,118134
seismic,39,6,240.452652,319181.000000,95480000.000000,313971,100001538,242,118134
seismic,39,7,238.957199,344587.000000,95480000.000000,340455,100001538,268,118134
seismic,39,8,234.050873,1463815.000000,95480000.000000,1504056,100001538,1536,118134
seismic,39,9,225.920654,2848760.000000,95480000.000000,2946747,100001538,3184,118134
seismic,39,10,221.697540,4391627.000000,95480000.000000,4569015,100001538,4860,118134
seismic,39,bestNN,219.926056,17117182.000000,95480000.000000,17667062,100001538,22775,118134
seismic,40,0,322.534027,1577.000000,93606231.000000,1552,99989570,1,118119
seismic,40,1,315.301392,25796.000000,93606231.000000,7944,99989570,5,118119
seismic,40,2,296.588501,27152.000000,93606231.000000,9318,99989570,6,118119
seismic,40,3,293.033844,28480.000000,93606231.000000,10687,99989570,7,118119
seismic,40,4,289.938629,35743.000000,93606231.000000,18109,99989570,12,118119
seismic,40,5,267.259491,52450.000000,93606231.000000,35339,99989570,25,118119
seismic,40,6,261.727814,57069.000000,93606231.000000,40173,99989570,30,118119
seismic,40,7,259.313049,89117.000000,93606231.000000,73696,99989570,56,118119
seismic,40,8,239.429977,151868.000000,93606231.000000,139392,99989570,113,118119
seismic,40,bestNN,231.239456,1350457.000000,93606231.000000,1414661,99989570,1362,118119
seismic,41,0,412.873383,134.000000,100242830.000000,111,100000111,1,118135
seismic,41,1,362.160858,13505.000000,100242830.000000,2152,100000111,3,118135
seismic,41,2,347.826691,16134.000000,100242830.000000,4725,100000111,7,118135
seismic,41,3,342.957092,56759.000000,100242830.000000,44769,100000111,54,118135
seismic,41,4,329.121613,346645.000000,100242830.000000,331562,100000111,395,118135
seismic,41,5,326.994629,6038851.000000,100242830.000000,6008622,100000111,6898,118135
seismic,41,bestNN,314.808777,8032767.000000,100242830.000000,7999589,100000111,9315,118135
seismic,42,0,355.721497,725.000000,98578784.000000,651,100000651,1,118135
seismic,42,1,329.737732,13071.000000,98578784.000000,1891,100000651,3,118135
seismic,42,2,300.941101,15993.000000,98578784.000000,4683,100000651,7,118135
seismic,42,3,292.003662,20824.000000,98578784.000000,9388,100000651,16,118135
seismic,42,4,285.687561,89758.000000,98578784.000000,77182,100000651,113,118135
seismic,42,5,268.672119,90221.000000,98578784.000000,77641,100000651,114,118135
seismic,42,6,268.204193,1052527.000000,98578784.000000,1041966,100000651,1671,118135
seismic,42,7,266.149994,1088815.000000,98578784.000000,1078297,100000651,1738,118135
seismic,42,8,262.099213,1300031.000000,98578784.000000,1290824,100000651,2095,118135
seismic,42,9,258.158386,1822554.000000,98578784.000000,1817532,100000651,2964,118135
seismic,42,bestNN,240.097900,3522105.000000,98578784.000000,3536636,100000651,5748,118135
seismic,43,0,355.923157,733.000000,102241327.000000,676,100000676,1,118135
seismic,43,1,348.599030,15111.000000,102241327.000000,1806,100000676,3,118135
seismic,43,2,345.454376,26418.000000,102241327.000000,12916,100000676,22,118135
seismic,43,3,344.981201,39953.000000,102241327.000000,26177,100000676,48,118135
seismic,43,4,338.493958,78042.000000,102241327.000000,63573,100000676,109,118135
seismic,43,5,331.519165,91866.000000,102241327.000000,77195,100000676,132,118135
seismic,43,bestNN,324.521271,152791.000000,102241327.000000,137393,100000676,228,118135
seismic,44,0,248.543549,621.000000,97892931.000000,586,100000586,1,118135
seismic,44,1,244.169418,42396.000000,97892931.000000,28520,100000586,37,118135
seismic,44,2,244.109787,161141.000000,97892931.000000,148368,100000586,224,118135
seismic,44,3,242.020737,174241.000000,97892931.000000,161621,100000586,241,118135
seismic,44,4,239.120468,759038.000000,97892931.000000,751680,100000586,1194,118135
seismic,44,5,238.663315,850335.000000,97892931.000000,843844,100000586,1354,118135
seismic,44,6,237.932297,1111751.000000,97892931.000000,1109036,100000586,1771,118135
seismic,44,7,225.993637,2435417.000000,97892931.000000,2453013,100000586,3865,118135
seismic,44,bestNN,220.416245,12447997.000000,97892931.000000,12738749,100000586,18467,118135
seismic,45,0,347.717102,673.000000,94072473.000000,627,99998116,1,118131
seismic,45,1,301.197327,20469.000000,94072473.000000,2816,99998116,3,118131
seismic,45,2,285.935974,30284.000000,94072473.000000,12527,99998116,14,118131
seismic,45,3,283.284973,34066.000000,94072473.000000,16290,99998116,19,118131
seismic,45,4,270.993042,41740.000000,94072473.000000,23907,99998116,32,118131
seismic,45,5,236.269989,42837.000000,94072473.000000,25017,99998116,34,118131
seismic,45,6,232.751007,386723.000000,94072473.000000,382315,99998116,512,118131
seismic,45,7,226.751740,729230.000000,94072473.000000,739709,99998116,994,118131
seismic,45,8,220.395554,2228917.000000,94072473.000000,2315356,99998116,3109,118131
seismic,45,bestNN,203.394287,10894798.000000,94072473.000000,11148209,99998116,15539,118131
seismic,46,0,323.827057,1290.000000,96232385.000000,1250,99998739,1,118131
seismic,46,1,296.710266,17270.000000,96232385.000000,6033,99998739,4,118131
seismic,46,2,284.549530,45011.000000,96232385.000000,34415,99998739,25,118131
seismic,46,3,278.189484,106239.000000,96232385.000000,97397,99998739,81,118131
seismic,46,4,259.938293,362991.000000,96232385.000000,361816,99998739,307,118131
seismic,46,5,258.368500,3764505.000000,96232385.000000,3923871,99998739,4114,118131
seismic,46,6,252.212753,20166625.000000,96232385.000000,20773685,99998739,28697,118131
seismic,46,7,251.865051,27236888.000000,96232385.000000,28185329,99998739,40378,118131
seismic,46,bestNN,238.944107,34115370.000000,96232385.000000,35083349,99998739,51217,118131
seismic,47,0,180.789032,558.000000,80304590.000000,539,90082386,1,109410
seismic,47,1,177.284485,17067.000000,80304590.000000,5920,90082386,5,109410
seismic,47,2,172.593445,19422.000000,80304590.000000,8355,90082386,7,109410
seismic,47,bestNN,167.382950,215868.000000,80304590.000000,222973,90082386,212,109410
seismic,48,0,317.828857,1622.000000,92648393.000000,1386,99754125,1,117865
seismic,48,1,288.460083,22897.000000,92648393.000000,5251,99754125,4,117865
seismic,48,2,286.278870,26002.000000,92648393.000000,8034,99754125,6,117865
seismic,48,3,279.293060,62604.000000,92648393.000000,40638,99754125,35,117865
seismic,48,4,277.051697,64995.000000,92648393.000000,42791,99754125,37,117865
seismic,48,5,276.060394,66403.000000,92648393.000000,44064,99754125,38,117865
seismic,48,6,261.502808,78110.000000,92648393.000000,54615,99754125,47,117865
seismic,48,7,258.212830,218847.000000,92648393.000000,182553,99754125,144,117865
seismic,48,8,250.080994,304398.000000,92648393.000000,260669,99754125,204,117865
seismic,48,bestNN,212.816315,504642.000000,92648393.000000,444725,99754125,344,117865
seismic,49,0,347.726349,1109.000000,94387370.000000,1067,99992484,1,118112
seismic,49,1,308.466248,20375.000000,94387370.000000,3933,99992484,3,118112
seismic,49,2,285.252167,30816.000000,94387370.000000,14599,99992484,10,118112
seismic,49,bestNN,235.798279,35303.000000,94387370.000000,19282,99992484,13,118112
seismic,50,0,278.448486,1599.000000,92069731.000000,1599,99573333,1,117734
seismic,50,1,245.013779,26134.000000,92069731.000000,8727,99573333,9,117734
seismic,50,2,241.110901,390682.000000,92069731.000000,398489,99573333,352,117734
seismic,50,3,237.800827,782247.000000,92069731.000000,819236,99573333,768,117734
seismic,50,4,236.768661,1525771.000000,92069731.000000,1620694,99573333,1677,117734
seismic,50,5,235.948364,4771685.000000,92069731.000000,5128954,99573333,5753,117734
seismic,50,bestNN,230.501678,26039933.000000,92069731.000000,28233055,99573333,38449,117734
seismic,51,0,291.962463,1566.000000,93195093.000000,1490,99935828,1,118052
seismic,51,1,270.962372,19060.000000,93195093.000000,7838,99935828,5,118052
seismic,51,2,249.122803,24634.000000,93195093.000000,13539,99935828,9,118052
seismic,51,3,243.458939,40563.000000,93195093.000000,30088,99935828,20,118052
seismic,51,4,242.950928,126571.000000,93195093.000000,119508,99935828,85,118052
seismic,51,5,238.449234,314798.000000,93195093.000000,315561,99935828,237,118052
seismic,51,6,210.735504,367073.000000,93195093.000000,370592,99935828,271,118052
seismic,51,bestNN,188.463684,6845588.000000,93195093.000000,7282067,99935828,7545,118052
seismic,52,0,323.244507,2127.000000,96862696.000000,1799,100001175,1,118131
seismic,52,1,315.867889,24230.000000,96862696.000000,5111,100001175,3,118131
seismic,52,2,306.336884,25900.000000,96862696.000000,6562,100001175,4,118131
seismic,52,3,279.102936,27565.000000,96862696.000000,8037,100001175,5,118131
seismic,52,4,256.361206,43062.000000,96862696.000000,21778,100001175,14,118131
seismic,52,bestNN,242.725357,1617515.000000,96862696.000000,1518224,100001175,1133,118131
seismic,53,0,294.674225,1939.000000,97425915.000000,1648,100001446,1,118134
seismic,53,1,285.022034,126005.000000,97425915.000000,90855,100001446,81,118134
seismic,53,2,268.128296,154977.000000,97425915.000000,116030,100001446,107,118134
seismic,53,3,254.685501,9789561.000000,97425915.000000,9925175,100001446,11459,118134
seismic,53,bestNN,250.160599,27343760.000000,97425915.000000,27705065,100001446,36999,118134
seismic,54,0,353.484222,575.000000,95319677.000000,532,100000532,1,118135
seismic,54,1,341.397705,19943.000000,95319677.000000,2597,100000532,4,118135
seismic,54,2,338.017639,22227.000000,95319677.000000,4820,100000532,8,118135
seismic,54,3,294.420074,24970.000000,95319677.000000,7551,100000532,10,118135
seismic,54,4,268.165039,26925.000000,95319677.000000,9509,100000532,14,118135
seismic,54,5,265.525909,35516.000000,95319677.000000,18319,100000532,27,118135
seismic,54,6,265.132355,74243.000000,95319677.000000,58103,100000532,87,118135
seismic,54,7,254.228622,98742.000000,95319677.000000,83334,100000532,122,118135
seismic,54,8,250.765839,209078.000000,95319677.000000,197799,100000532,293,118135
seismic,54,9,244.913696,1523936.000000,95319677.000000,1570593,100000532,2158,118135
seismic,54,bestNN,238.256805,2169721.000000,95319677.000000,2248865,100000532,3069,118135
seismic,55,0,319.518921,1019.000000,94429702.000000,954,99995174,1,118119
seismic,55,1,287.328735,13850.000000,94429702.000000,2611,99995174,3,118119
seismic,55,2,280.285187,14996.000000,94429702.000000,3742,99995174,5,118119
seismic,55,3,255.808868,16911.000000,94429702.000000,5628,99995174,8,118119
seismic,55,4,253.448959,24941.000000,94429702.000000,13726,99995174,22,118119
seismic,55,5,226.356644,29846.000000,94429702.000000,18676,99995174,30,118119
seismic,55,bestNN,210.228180,54022.000000,94429702.000000,43829,99995174,68,118119
seismic,56,0,307.679871,615.000000,96288188.000000,584,99992998,1,118125
seismic,56,1,281.656342,16207.000000,96288188.000000,5247,99992998,5,118125
seismic,56,2,274.147430,36299.000000,96288188.000000,25696,99992998,20,118125
seismic,56,3,270.274384,70032.000000,96288188.000000,60275,99992998,47,118125
seismic,56,4,264.315948,78488.000000,96288188.000000,68947,99992998,53,118125
seismic,56,bestNN,229.263733,172062.000000,96288188.000000,165092,99992998,129,118125
seismic,57,0,301.708923,1649.000000,94114805.000000,1408,99964129,1,118097
seismic,57,1,292.968658,22647.000000,94114805.000000,4183,99964129,3,118097
seismic,57,2,278.841492,27239.000000,94114805.000000,8190,99964129,6,118097
seismic,57,3,259.982758,28863.000000,94114805.000000,9642,99964129,7,118097
seismic,57,4,252.382812,36014.000000,94114805.000000,16004,99964129,11,118097
seismic,57,5,244.034058,118300.000000,94114805.000000,89849,99964129,62,118097
seismic,57,6,243.000732,355015.000000,94114805.000000,303297,99964129,224,118097
seismic,57,7,223.361664,385783.000000,94114805.000000,331141,99964129,244,118097
seismic,57,8,222.185379,653195.000000,94114805.000000,576778,99964129,428,118097
seismic,57,9,221.516220,1544151.000000,94114805.000000,1516547,99964129,1182,118097
seismic,57,10,220.059570,8389559.000000,94114805.000000,8789458,99964129,9552,118097
seismic,57,11,216.559097,9017428.000000,94114805.000000,9457401,99964129,10470,118097
seismic,57,bestNN,201.743317,36839255.000000,94114805.000000,38491922,99964129,53520,118097
seismic,58,0,325.246155,641.000000,95719773.000000,596,100000596,1,118135
seismic,58,1,294.041626,17506.000000,95719773.000000,2390,100000596,3,118135
seismic,58,2,274.582947,24644.000000,95719773.000000,9582,100000596,13,118135
seismic,58,3,267.658569,35925.000000,95719773.000000,21041,100000596,32,118135
seismic,58,4,254.231277,43443.000000,95719773.000000,28772,100000596,43,118135
seismic,58,5,246.501968,161751.000000,95719773.000000,151267,100000596,263,118135
seismic,58,6,244.825165,234743.000000,95719773.000000,227448,100000596,412,118135
seismic,58,bestNN,234.625916,3174658.000000,95719773.000000,3309386,100000596,5634,118135
seismic,59,0,344.823547,1921.000000,96045172.000000,1825,100001825,1,118135
seismic,59,1,342.729126,23656.000000,96045172.000000,5426,100001825,3,118135
seismic,59,2,339.997803,24999.000000,96045172.000000,6721,100001825,4,118135
seismic,59,3,321.206482,26033.000000,96045172.000000,7734,100001825,5,118135
seismic,59,4,315.186951,29092.000000,96045172.000000,10768,100001825,7,118135
seismic,59,5,313.232361,30762.000000,96045172.000000,12432,100001825,8,118135
seismic,59,6,298.481415,36589.000000,96045172.000000,18201,100001825,12,118135
seismic,59,7,280.882568,38187.000000,96045172.000000,19814,100001825,13,118135
seismic,59,8,280.347076,137179.000000,96045172.000000,121016,100001825,90,118135
seismic,59,9,240.953156,572394.000000,96045172.000000,564340,100001825,535,118135
seismic,59,bestNN,239.220108,2163112.000000,96045172.000000,2020878,100001825,2229,118135
seismic,60,0,116.350197,1328.000000,47850031.000000,1316,55865556,1,71073
seismic,60,1,110.269592,15060.000000,47850031.000000,3419,55865556,3,71073
seismic,60,bestNN,105.433014,22998.000000,47850031.000000,11564,55865556,10,71073
seismic,61,0,249.353577,826.000000,93946793.000000,804,100000759,1,118134
seismic,61,1,228.725647,113214.000000,93946793.000000,105838,100000759,83,118134
seismic,61,2,220.301682,987366.000000,93946793.000000,1030461,100000759,888,118134
seismic,61,bestNN,215.601593,21616166.000000,93946793.000000,22948222,100000759,31872,118134
seismic,62,0,293.245239,1100.000000,95303896.000000,1056,100000839,1,118133
seismic,62,1,289.542297,24218.000000,95303896.000000,5917,100000839,5,118133
seismic,62,2,278.963165,86651.000000,95303896.000000,69596,100000839,55,118133
seismic,62,3,267.043518,255573.000000,95303896.000000,243974,100000839,183,118133
seismic,62,4,266.965240,295620.000000,95303896.000000,285748,100000839,213,118133
seismic,62,5,264.203369,3010331.000000,95303896.000000,3115476,100000839,2953,118133
seismic,62,6,261.491394,6421385.000000,95303896.000000,6673878,100000839,7422,118133
seismic,62,bestNN,256.259064,21320200.000000,95303896.000000,22235861,100000839,29932,118133
seismic,63,0,327.408325,1742.000000,93949533.000000,1679,100001634,1,118134
seismic,63,1,292.615204,17883.000000,93949533.000000,6987,100001634,4,118134
seismic,63,2,260.276123,35647.000000,93949533.000000,25202,100001634,16,118134
seismic,63,3,235.393677,684982.000000,93949533.000000,705021,100001634,539,118134
seismic,63,4,218.044052,2038217.000000,93949533.000000,2145491,100001634,1954,118134
seismic,63,bestNN,213.054291,27925679.000000,93949533.000000,29546846,100001634,42704,118134
seismic,64,0,256.911652,1295.000000,88557794.000000,1249,96528859,1,115100
seismic,64,1,247.979691,15777.000000,88557794.000000,4482,96528859,3,115100
seismic,64,2,246.271729,18841.000000,88557794.000000,7581,96528859,5,115100
seismic,64,3,244.654495,22070.000000,88557794.000000,10860,96528859,7,115100
seismic,64,4,223.057739,25423.000000,88557794.000000,14297,96528859,9,115100
seismic,64,5,209.870300,43726.000000,88557794.000000,33352,96528859,20,115100
seismic,64,6,209.366257,46032.000000,88557794.000000,35713,96528859,22,115100
seismic,64,7,204.122726,121984.000000,88557794.000000,115627,96528859,81,115100
seismic,64,8,193.211136,368314.000000,88557794.000000,376018,96528859,284,115100
seismic,64,9,192.634109,926357.000000,88557794.000000,970388,96528859,811,115100
seismic,64,10,185.854980,985256.000000,88557794.000000,1032985,96528859,867,115100
seismic,64,bestNN,178.089020,3361996.000000,88557794.000000,3561761,96528859,3005,115100
seismic,65,0,337.229340,709.000000,93258402.000000,671,99998424,1,118131
seismic,65,1,325.491486,15411.000000,93258402.000000,3140,99998424,3,118131
seismic,65,2,292.538788,16980.000000,93258402.000000,4686,99998424,4,118131
seismic,65,3,257.092957,24523.000000,93258402.000000,12300,99998424,10,118131
seismic,65,4,256.432709,38946.000000,93258402.000000,27266,99998424,21,118131
seismic,65,5,251.050995,72495.000000,93258402.000000,62025,99998424,49,118131
seismic,65,6,219.165436,105929.000000,93258402.000000,96824,99998424,78,118131
seismic,65,7,212.601334,255982.000000,93258402.000000,257135,99998424,197,118131
seismic,65,bestNN,208.256424,48454946.000000,93258402.000000,51376605,99998424,71546,118131
seismic,66,0,331.292908,121.000000,95085458.000000,103,100000103,1,118135
seismic,66,1,326.866150,17763.000000,95085458.000000,570,100000103,3,118135
seismic,66,2,314.844452,18122.000000,95085458.000000,921,100000103,4,118135
seismic,66,3,312.849823,18766.000000,95085458.000000,1561,100000103,5,118135
seismic,66,4,310.149506,19802.000000,95085458.000000,2578,100000103,7,118135
seismic,66,5,296.013580,20730.000000,95085458.000000,3501,100000103,9,118135
seismic,66,6,281.205170,22998.000000,95085458.000000,5797,100000103,12,118135
seismic,66,7,265.111359,35231.000000,95085458.000000,18199,100000103,36,118135
seismic,66,8,241.879852,43947.000000,95085458.000000,27098,100000103,57,118135
seismic,66,9,232.594910,251207.000000,95085458.000000,244820,100000103,364,118135
seismic,66,bestNN,220.769165,397340.000000,95085458.000000,399069,100000103,625,118135
seismic,67,0,316.599884,908.000000,95773456.000000,852,99866641,1,117965
seismic,67,1,306.227448,21917.000000,95773456.000000,3281,99866641,4,117965
seismic,67,2,301.520966,26795.000000,95773456.000000,8069,99866641,10,117965
seismic,67,3,293.970154,27793.000000,95773456.000000,9050,99866641,11,117965
seismic,67,4,290.200958,33373.000000,95773456.000000,14577,99866641,18,117965
seismic,67,5,284.900543,37985.000000,95773456.000000,19122,99866641,23,117965
seismic,67,6,267.127045,46740.000000,95773456.000000,27649,99866641,31,117965
seismic,67,7,257.918915,108967.000000,95773456.000000,91037,99866641,75,117965
seismic,67,bestNN,249.759354,1119188.000000,95773456.000000,1128706,99866641,862,117965
seismic,68,0,264.756927,651.000000,93227090.000000,618,99981996,1,118094
seismic,68,1,260.811401,14995.000000,93227090.000000,3623,99981996,6,118094
seismic,68,2,229.425476,46801.000000,93227090.000000,36077,99981996,47,118094
seismic,68,3,222.033966,124183.000000,93227090.000000,117195,99981996,141,118094
seismic,68,4,211.791321,224585.000000,93227090.000000,223515,99981996,256,118094
seismic,68,5,209.088135,1470026.000000,93227090.000000,1544676,99981996,2093,118094
seismic,68,6,207.965988,2884904.000000,93227090.000000,3047319,99981996,4274,118094
seismic,68,7,196.268143,4330329.000000,93227090.000000,4586301,99981996,6676,118094
seismic,68,8,180.633698,5134226.000000,93227090.000000,5412787,99981996,8038,118094
seismic,68,bestNN,178.517990,18779643.000000,93227090.000000,19974063,99981996,29308,118094
seismic,69,0,156.934143,786.000000,83013123.000000,764,89286673,1,108529
seismic,69,1,155.633118,22117.000000,83013123.000000,10459,89286673,8,108529
seismic,69,2,154.558716,56694.000000,83013123.000000,45668,89286673,34,108529
seismic,69,3,149.570251,89335.000000,83013123.000000,79314,89286673,59,108529
seismic,69,bestNN,147.830460,314915.000000,83013123.000000,315682,89286673,260,108529
seismic,70,0,336.445160,1292.000000,95355153.000000,1188,100001188,1,118135
seismic,70,1,315.265991,18446.000000,95355153.000000,3431,100001188,3,118135
seismic,70,2,307.403381,28038.000000,95355153.000000,13122,100001188,9,118135
seismic,70,3,305.853088,38714.000000,95355153.000000,23999,100001188,16,118135
seismic,70,4,294.808746,54023.000000,95355153.000000,39580,100001188,27,118135
seismic,70,5,293.396271,119654.000000,95355153.000000,106999,100001188,78,118135
seismic,70,6,291.690033,219375.000000,95355153.000000,209515,100001188,158,118135
seismic,70,7,266.626099,261756.000000,95355153.000000,253057,100001188,190,118135
seismic,70,8,247.873367,292658.000000,95355153.000000,285531,100001188,216,118135
seismic,70,bestNN,247.184814,4414105.000000,95355153.000000,4646753,100001188,4950,118135
seismic,71,0,264.756409,803.000000,96205721.000000,775,100000775,1,118135
seismic,71,bestNN,243.771042,59016.000000,96205721.000000,41690,100000775,66,118135
seismic,72,0,289.831482,2024.000000,93132124.000000,1978,99247320,1,117387
seismic,72,1,262.066193,17394.000000,93132124.000000,5919,99247320,3,117387
seismic,72,2,248.895111,33059.000000,93132124.000000,21809,99247320,16,117387
seismic,72,3,242.668579,60350.000000,93132124.000000,49907,99247320,42,117387
seismic,72,4,238.203903,116603.000000,93132124.000000,108253,99247320,88,117387
seismic,72,5,227.412643,740931.000000,93132124.000000,757211,99247320,583,117387
seismic,72,bestNN,209.952713,1121414.000000,93132124.000000,1155785,99247320,962,117387
seismic,73,0,276.724487,1523.000000,98378255.000000,1265,99916886,1,118017
seismic,73,1,268.484619,22535.000000,98378255.000000,4270,99916886,3,118017
seismic,73,2,262.041595,45675.000000,98378255.000000,23909,99916886,18,118017
seismic,73,3,258.732666,59317.000000,98378255.000000,35479,99916886,26,118017
seismic,73,4,258.158569,149899.000000,98378255.000000,113156,99916886,85,118017
seismic,73,5,257.372253,575159.000000,98378255.000000,483018,99916886,379,118017
seismic,73,6,254.804337,1503259.000000,98378255.000000,1294706,99916886,1094,118017
seismic,73,7,253.736343,1912310.000000,98378255.000000,1654714,99916886,1440,118017
seismic,73,bestNN,251.465637,3791783.000000,98378255.000000,3529902,99916886,3371,118017
seismic,74,0,320.519623,819.000000,97166479.000000,773,100000773,1,118135
seismic,74,1,306.662567,17457.000000,97166479.000000,3248,100000773,3,118135
seismic,74,2,291.221832,21770.000000,97166479.000000,7564,100000773,9,118135
seismic,74,3,271.721375,323918.000000,97166479.000000,314447,100000773,404,118135
seismic,74,4,265.472656,1929483.000000,97166479.000000,1970126,100000773,2613,118135
seismic,74,5,264.498352,2222893.000000,97166479.000000,2273836,100000773,3103,118135
seismic,74,6,259.640472,2969078.000000,97166479.000000,3047121,100000773,4191,118135
seismic,74,bestNN,257.975525,8312545.000000,97166479.000000,8600830,100000773,12201,118135
seismic,75,0,272.091187,644.000000,91873190.000000,627,99992160,1,118113
seismic,75,1,268.033203,18474.000000,91873190.000000,2230,99992160,4,118113
seismic,75,2,264.482666,21109.000000,91873190.000000,4915,99992160,11,118113
seismic,75,3,257.299316,25218.000000,91873190.000000,9141,99992160,19,118113
seismic,75,4,251.099808,27443.000000,91873190.000000,11444,99992160,23,118113
seismic,75,5,235.939713,35656.000000,91873190.000000,20009,99992160,39,118113
seismic,75,6,229.602722,43959.000000,91873190.000000,28804,99992160,52,118113
seismic,75,7,226.861359,55821.000000,91873190.000000,41447,99992160,71,118113
seismic,75,8,220.120377,109412.000000,91873190.000000,98666,99992160,155,118113
seismic,75,bestNN,206.248840,160451.000000,91873190.000000,153299,99992160,239,118113
seismic,76,0,273.154297,1479.000000,95049175.000000,1438,99985233,1,118106
seismic,76,1,271.985168,23337.000000,95049175.000000,5074,99985233,4,118106
seismic,76,2,250.648621,32874.000000,95049175.000000,14619,99985233,13,118106
seismic,76,3,246.191925,35067.000000,95049175.000000,16855,99985233,15,118106
seismic,76,4,232.481720,298294.000000,95049175.000000,287195,99985233,265,118106
seismic,76,bestNN,217.179199,1764218.000000,95049175.000000,1812674,99985233,1807,118106
seismic,77,0,353.218964,1856.000000,95666557.000000,1811,100001811,1,118135
seismic,77,1,318.155334,16188.000000,95666557.000000,4856,100001811,3,118135
seismic,77,2,317.808807,17965.000000,95666557.000000,6632,100001811,6,118135
seismic,77,3,308.013367,31803.000000,95666557.000000,20468,100001811,21,118135
seismic,77,4,268.868073,34886.000000,95666557.000000,23590,100001811,23,118135
seismic,77,5,258.944885,241623.000000,95666557.000000,237146,100001811,246,118135
seismic,77,bestNN,249.125366,3398794.000000,95666557.000000,3258818,100001811,3717,118135
seismic,78,0,279.512482,75.000000,89717487.000000,62,99915704,1,118026
seismic,78,1,259.485748,13494.000000,89717487.000000,2281,99915704,5,118026
seismic,78,2,251.983154,21316.000000,89717487.000000,10558,99915704,16,118026
seismic,78,3,246.453445,27425.000000,89717487.000000,16979,99915704,34,118026
seismic,78,4,203.804916,44711.000000,89717487.000000,35360,99915704,57,118026
seismic,78,5,167.092117,444412.000000,89717487.000000,476713,99915704,602,118026
seismic,78,bestNN,166.240234,1479181.000000,89717487.000000,1646583,99915704,2041,118026
seismic,79,0,335.458313,699.000000,100840546.000000,665,100000665,1,118135
seismic,79,1,332.236481,17292.000000,100840546.000000,2980,100000665,5,118135
seismic,79,2,331.271118,18120.000000,100840546.000000,3794,100000665,6,118135
seismic,79,3,325.114105,34381.000000,100840546.000000,19753,100000665,37,118135
seismic,79,4,323.049469,42974.000000,100840546.000000,28149,100000665,55,118135
seismic,79,5,314.660736,44630.000000,100840546.000000,29774,100000665,58,118135
seismic,79,6,302.406616,69102.000000,100840546.000000,53924,100000665,97,118135
seismic,79,7,302.244476,1029897.000000,100840546.000000,1010323,100000665,1613,118135
seismic,79,8,299.053467,5222904.000000,100840546.000000,5197116,100000665,7361,118135
seismic,79,bestNN,299.021851,18088230.000000,100840546.000000,17790268,100000665,24408,118135
seismic,80,0,316.393494,494.000000,97993853.000000,449,100000449,1,118135
seismic,80,1,309.699829,18834.000000,97993853.000000,1801,100000449,3,118135
seismic,80,2,307.447693,22090.000000,97993853.000000,4958,100000449,5,118135
seismic,80,3,291.376770,26387.000000,97993853.000000,9086,100000449,9,118135
seismic,80,4,278.746216,29452.000000,97993853.000000,12076,100000449,12,118135
seismic,80,5,278.478577,30152.000000,97993853.000000,12749,100000449,13,118135
seismic,80,6,275.103821,64177.000000,97993853.000000,46580,100000449,42,118135
seismic,80,7,274.637207,226981.000000,97993853.000000,208676,100000449,181,118135
seismic,80,8,265.830811,234709.000000,97993853.000000,216366,100000449,189,118135
seismic,80,bestNN,244.219528,445565.000000,97993853.000000,428599,100000449,386,118135
seismic,81,0,294.087860,447.000000,92868795.000000,429,99934318,1,118031
seismic,81,1,280.804199,31401.000000,92868795.000000,13441,99934318,14,118031
seismic,81,2,269.778748,43045.000000,92868795.000000,25372,99934318,23,118031
seismic,81,3,260.399170,45567.000000,92868795.000000,27991,99934318,26,118031
seismic,81,4,241.732346,59248.000000,92868795.000000,42274,99934318,43,118031
seismic,81,5,238.466827,150365.000000,92868795.000000,138611,99934318,149,118031
seismic,81,6,218.879547,209862.000000,92868795.000000,201703,99934318,226,118031
seismic,81,7,213.208023,495733.000000,92868795.000000,508574,99934318,571,118031
seismic,81,bestNN,185.565491,4770531.000000,92868795.000000,5123204,99934318,6113,118031
seismic,82,0,223.961639,1710.000000,92599570.000000,1661,98615002,1,116840
seismic,82,bestNN,208.237274,16669.000000,92599570.000000,5341,98615002,4,116840
seismic,83,0,309.146606,333.000000,95257623.000000,311,100000311,1,118135
seismic,83,1,286.931671,13665.000000,95257623.000000,1504,100000311,5,118135
seismic,83,2,281.938538,164291.000000,95257623.000000,156699,100000311,277,118135
seismic,83,3,270.709167,195646.000000,95257623.000000,189126,100000311,337,118135
seismic,83,4,268.343475,722503.000000,95257623.000000,740202,100000311,1250,118135
seismic,83,5,266.457703,951933.000000,95257623.000000,980582,100000311,1616,118135
seismic,83,6,265.039246,1595000.000000,95257623.000000,1655586,100000311,2679,118135
seismic,83,bestNN,253.449127,2323709.000000,95257623.000000,2421336,100000311,3887,118135
seismic,84,0,295.527313,1236.000000,95176836.000000,1213,100001213,1,118135
seismic,84,1,281.276733,18300.000000,95176836.000000,3572,100001213,3,118135
seismic,84,2,266.974579,35154.000000,95176836.000000,20752,100001213,23,118135
seismic,84,3,244.076965,41644.000000,95176836.000000,27462,100001213,30,118135
seismic,84,4,243.390808,1656692.000000,95176836.000000,1719250,100001213,2792,118135
seismic,84,5,235.309631,5592254.000000,95176836.000000,5863476,100001213,8586,118135
seismic,84,bestNN,231.465408,10588983.000000,95176836.000000,10867253,100001213,15806,118135
seismic,85,0,206.239212,1949.000000,88840809.000000,1915,97369774,1,115787
seismic,85,bestNN,193.023682,23400.000000,88840809.000000,5600,97369774,3,115787
seismic,86,0,324.514618,1316.000000,98357313.000000,1262,100001262,1,118135
seismic,86,1,322.140961,29806.000000,98357313.000000,18189,100001262,14,118135
seismic,86,2,317.788544,37243.000000,98357313.000000,25521,100001262,19,118135
seismic,86,3,315.225433,59930.000000,98357313.000000,47960,100001262,33,118135
seismic,86,4,310.408691,80609.000000,98357313.000000,68269,100001262,46,118135
seismic,86,5,289.602936,82138.000000,98357313.000000,69805,100001262,47,118135
seismic,86,6,280.869293,117368.000000,98357313.000000,105398,100001262,71,118135
seismic,86,7,268.771698,1295303.000000,98357313.000000,1299876,100001262,996,118135
seismic,86,8,265.502136,9494940.000000,98357313.000000,9661152,100001262,11017,118135
seismic,86,bestNN,255.667862,28767844.000000,98357313.000000,29083621,100001262,39570,118135
seismic,87,0,269.928558,639.000000,92441039.000000,609,99886030,1,118001
seismic,87,1,251.276474,15489.000000,92441039.000000,3893,99886030,6,118001
seismic,87,2,243.279373,17929.000000,92441039.000000,6403,99886030,10,118001
seismic,87,3,238.859436,20084.000000,92441039.000000,8621,99886030,14,118001
seismic,87,4,231.093765,20995.000000,92441039.000000,9579,99886030,15,118001
seismic,87,5,208.753128,64203.000000,92441039.000000,54915,99886030,79,118001
seismic,87,bestNN,165.944794,132381.000000,92441039.000000,127433,99886030,192,118001
seismic,88,0,141.105469,1977.000000,67492220.000000,1981,75976778,1,96247
seismic,88,1,140.409653,21010.000000,67492220.000000,7696,75976778,6,96247
seismic,88,2,138.917496,22787.000000,67492220.000000,9486,75976778,7,96247
seismic,88,3,136.184143,26413.000000,67492220.000000,13124,75976778,10,96247
seismic,88,4,132.927917,66891.000000,67492220.000000,54759,75976778,41,96247
seismic,88,5,130.710983,68930.000000,67492220.000000,56683,75976778,42,96247
seismic,88,bestNN,117.736816,188693.000000,67492220.000000,182368,75976778,140,96247
seismic,89,0,145.229141,814.000000,69158422.000000,673,76770418,1,97378
seismic,89,1,140.175995,26589.000000,69158422.000000,3557,76770418,4,97378
seismic,89,2,128.348053,38919.000000,69158422.000000,14388,76770418,13,97378
seismic,89,3,127.236206,55973.000000,69158422.000000,29441,76770418,28,97378
seismic,89,bestNN,124.572365,923622.000000,69158422.000000,893919,76770418,765,97378
seismic,90,0,307.167114,1411.000000,93145021.000000,1367,99624801,1,117799
seismic,90,1,299.871643,17364.000000,93145021.000000,6084,99624801,4,117799
seismic,90,2,292.963867,28277.000000,93145021.000000,16977,99624801,14,117799
seismic,90,3,284.268982,34531.000000,93145021.000000,23275,99624801,19,117799
seismic,90,4,255.818359,35619.000000,93145021.000000,24377,99624801,20,117799
seismic,90,5,231.028091,99493.000000,93145021.000000,90534,99624801,62,117799
seismic,90,6,230.989395,1911450.000000,93145021.000000,1991583,99624801,1617,117799
seismic,90,7,230.754990,2938715.000000,93145021.000000,3069898,99624801,2680,117799
seismic,90,8,225.297318,3001024.000000,93145021.000000,3135383,99624801,2751,117799
seismic,90,bestNN,196.699051,3686862.000000,93145021.000000,3857322,99624801,3534,117799
seismic,91,0,374.566742,867.000000,97616323.000000,814,100000814,1,118135
seismic,91,1,363.821564,15256.000000,97616323.000000,2280,100000814,3,118135
seismic,91,2,357.517365,19685.000000,97616323.000000,6590,100000814,7,118135
seismic,91,3,311.912903,27331.000000,97616323.000000,14081,100000814,17,118135
seismic,91,4,306.389923,1224451.000000,97616323.000000,1227376,100000814,1456,118135
seismic,91,bestNN,285.215637,3220211.000000,97616323.000000,3257554,100000814,3952,118135
seismic,92,0,290.225433,1444.000000,93289696.000000,1431,99856412,1,117964
seismic,92,1,282.446838,25649.000000,93289696.000000,8620,99856412,6,117964
seismic,92,2,278.499725,27033.000000,93289696.000000,10052,99856412,7,117964
seismic,92,3,267.263550,33663.000000,93289696.000000,16935,99856412,12,117964
seismic,92,4,267.213806,72708.000000,93289696.000000,57864,99856412,38,117964
seismic,92,5,255.389908,179555.000000,93289696.000000,169774,99856412,115,117964
seismic,92,6,253.306808,514131.000000,93289696.000000,524030,99856412,389,117964
seismic,92,7,252.525421,639231.000000,93289696.000000,656620,99856412,502,117964
seismic,92,8,248.197052,702821.000000,93289696.000000,724151,99856412,552,117964
seismic,92,9,242.845428,1043560.000000,93289696.000000,1087127,99856412,824,117964
seismic,92,10,240.388733,2225709.000000,93289696.000000,2352745,99856412,1813,117964
seismic,92,11,239.530273,2284007.000000,93289696.000000,2414808,99856412,1865,117964
seismic,92,bestNN,234.612320,4020427.000000,93289696.000000,4267703,99856412,3530,117964
seismic,93,0,318.067291,1451.000000,93594592.000000,1417,99955665,1,118067
seismic,93,1,246.869156,24193.000000,93594592.000000,5590,99955665,4,118067
seismic,93,2,233.026382,75714.000000,93594592.000000,60249,99955665,45,118067
seismic,93,3,220.439835,223255.000000,93594592.000000,217878,99955665,166,118067
seismic,93,bestNN,217.733902,7080257.000000,93594592.000000,7322713,99955665,7594,118067
seismic,94,0,266.387390,553.000000,95706931.000000,531,100000531,1,118135
seismic,94,1,265.206909,35286.000000,95706931.000000,24388,100000531,38,118135
seismic,94,2,255.563675,137069.000000,95706931.000000,127199,100000531,219,118135
seismic,94,3,220.038132,188725.000000,95706931.000000,179977,100000531,317,118135
seismic,94,bestNN,210.005066,4449307.000000,95706931.000000,4668249,100000531,7488,118135
seismic,95,0,262.516968,713.000000,91450880.000000,718,100000673,1,118134
seismic,95,1,247.797424,17023.000000,91450880.000000,5225,100000673,8,118134
seismic,95,2,247.062332,39110.000000,91450880.000000,28598,100000673,40,118134
seismic,95,3,228.186615,47166.000000,91450880.000000,37120,100000673,54,118134
seismic,95,4,224.753464,182986.000000,91450880.000000,182685,100000673,320,118134
seismic,95,5,208.525055,226357.000000,91450880.000000,229292,100000673,404,118134
seismic,95,6,207.570831,1556753.000000,91450880.000000,1681518,100000673,2571,118134
seismic,95,bestNN,195.162643,27995044.000000,91450880.000000,29950530,100000673,43402,118134
seismic,96,0,299.981781,827.000000,90079746.000000,778,99987013,1,118102
seismic,96,1,216.074631,18286.000000,90079746.000000,3535,99987013,3,118102
seismic,96,2,213.064087,2421265.000000,90079746.000000,2609991,99987013,2556,118102
seismic,96,3,212.168747,4428183.000000,90079746.000000,4792282,99987013,5341,118102
seismic,96,bestNN,178.315903,5427991.000000,90079746.000000,5880211,99987013,6853,118102
seismic,97,0,221.578522,632.000000,90144655.000000,597,97453233,1,115799
seismic,97,1,202.800903,21295.000000,90144655.000000,3563,97453233,4,115799
seismic,97,2,195.208160,238982.000000,90144655.000000,224170,97453233,192,115799
seismic,97,3,183.835358,276756.000000,90144655.000000,263034,97453233,229,115799
seismic,97,bestNN,178.089645,2779001.000000,90144655.000000,2919570,97453233,2883,115799
seismic,98,0,257.120361,900.000000,95013659.000000,879,100000879,1,118135
seismic,98,1,249.660294,29076.000000,95013659.000000,18557,100000879,28,118135
seismic,98,bestNN,212.729294,57667.000000,95013659.000000,46946,100000879,64,118135
seismic,99,0,338.945648,788.000000,97736867.000000,736,99995173,1,118121
seismic,99,1,334.384216,14059.000000,97736867.000000,1927,99995173,3,118121
seismic,99,2,323.435699,15801.000000,97736867.000000,3604,99995173,6,118121
seismic,99,3,323.271637,17572.000000,97736867.000000,5299,99995173,8,118121
seismic,99,4,316.043945,19438.000000,97736867.000000,7094,99995173,11,118121
seismic,99,5,310.558838,31141.000000,97736867.000000,18543,99995173,26,118121
seismic,99,6,295.716553,38974.000000,97736867.000000,26223,99995173,34,118121
seismic,99,7,291.957153,75523.000000,97736867.000000,62456,99995173,89,118121
seismic,99,8,280.959747,179837.000000,97736867.000000,166505,99995173,217,118121
seismic,99,bestNN,248.094467,3293869.000000,97736867.000000,3307798,99995173,3811,118121
