6
1
1
1
5
9
14
3
5
9
9
2
10
12
5
9
8
1
1
6
6
9
9
1
12
9
14
8
2
1
5
17
14
1
18
1
14
3
9
12
3
2
5
8
8
9
9
14
8
9
9
9
17
6
9
1
6
7
14
1
3
1
1
8
1
7
2
1
9
1
17
1
4
2
14
1
1
5
3
1
1
6
9
6
2
9
4
6
2
9
1
2
7
1
3
1
12
1
3
8
1
1
2
8
2
8
9
6
9
6
9
2
14
8
1
1
7
5
19
1
1
2
8
1
1
8
1
18
1
1
7
2
2
6
12
9
9
2
9
9
9
2
9
9
5
1
3
8
10
2
5
9
2
9
19
8
9
1
1
1
2
6
7
6
6
9
14
10
1
2
2
9
9
1
9
7
2
6
2
1
1
14
1
7
9
8
2
8
1
2
1
9
1
14
6
7
14
1
1
1
1
2
1
6
2
9
7
14
2
9
14
9
12
9
2
2
1
9
13
2
6
7
1
2
1
6
14
2
3
6
6
6
9
1
2
2
3
6
2
6
6
9
9
8
1
5
19
6
1
2
12
1
1
8
9
1
8
1
2
1
7
12
14
6
9
1
12
14
5
7
1
1
5
9
6
1
12
14
2
13
1
1
1
9
9
2
5
7
1
5
9
2
12
9
8
2
20
1
5
2
9
8
2
1
1
2
14
1
2
17
1
9
1
8
6
9
6
9
16
1
9
8
19
1
9
9
2
1
19
1
9
8
9
1
1
6
1
9
6
9
6
2
14
8
3
14
3
3
1
1
12
8
2
2
2
17
1
9
1
8
1
7
1
2
1
9
8
9
6
1
9
6
10
6
1
14
1
19
6
8
6
6
7
1
2
6
8
2
2
2
17
14
2
5
14
18
10
14
2
1
1
1
6
9
14
2
9
6
1
9
9
14
2
1
1
2
1
9
1
1
8
2
6
7
14
14
6
9
2
8
2
14
7
2
14
6
1
1
8
10
6
5
9
2
1
14
6
9
1
12
14
14
7
8
1
8
2
1
7
7
9
5
9
1
9
9
9
6
5
17
8
7
9
1
9
8
19
9
1
2
1
1
2
1
7
9
5
12
1
5
2
9
1
1
5
6
9
6
9
2
1
1
1
14
1
7
1
13
7
1
9
6
9
1
2
19
8
9
2
1
14
1
1
10
19
9
1
1
6
9
1
1
1
2
2
2
2
1
9
2
2
14
3
2
14
1
9
17
8
1
2
5
5
9
1
5
6
6
2
8
2
10
6
7
2
7
8
2
9
6
1
1
3
6
9
7
2
6
7
14
9
9
6
17
10
8
6
9
2
1
1
9
14
13
1
9
1
14
7
7
2
1
12
1
2
2
19
1
19
8
1
17
2
6
7
1
3
2
1
9
9
2
2
10
17
1
1
1
9
1
2
7
9
2
2
2
5
8
7
9
2
9
1
9
9
2
5
2
1
5
1
2
6
9
1
1
14
6
5
2
9
3
1
2
9
6
14
1
2
1
1
1
8
14
6
6
14
2
5
17
1
6
2
8
1
8
9
8
10
1
2
1
1
8
9
8
1
1
1
6
7
1
8
7
15
14
2
9
6
19
14
7
1
1
6
5
1
1
2
7
1
2
3
1
2
6
1
6
1
12
5
1
9
6
1
14
2
1
12
7
6
19
14
6
1
1
8
19
1
2
10
9
18
1
8
2
6
1
3
1
14
9
14
8
6
17
7
5
1
5
6
8
6
1
14
6
1
14
14
19
6
6
8
1
2
14
1
6
14
9
9
15
9
12
2
1
1
6
1
1
1
9
1
10
9
2
1
3
6
1
1
9
1
2
1
15
8
1
9
5
1
3
1
1
14
1
1
1
14
9
1
9
2
9
1
9
9
9
1
2
1
2
2
2
2
5
1
2
14
2
9
2
14
3
1
2
6
6
9
14
2
12
21
2
1
1
8
8
8
9
7
8
9
6
7
9
2
3
9
9
5
2
6
2
2
1
9
1
7
7
1
2
14
9
15
1
2
1
2
1
9
1
5
9
14
2
3
1
2
17
17
1
1
6
2
1
6
9
1
7
3
19
5
14
7
1
9
14
6
9
1
6
1
14
6
9
7
2
8
1
8
1
9
14
7
7
1
1
2
5
9
7
2
12
7
5
2
6
1
6
9
1
1
9
1
8
9
2
6
10
14
9
9
14
6
14
1
1
6
1
2
1
5
5
19
6
1
1
2
9
5
2
6
17
1
2
1
6
6
15