synset;class1;class2
n02119789;kit_fox;canine
n02100735;English_setter;canine
n02096294;Australian_terrier;canine
n02509815;lesser_panda;carnivore
n02124075;Egyptian_cat;feline
n02123394;Persian_cat;feline
n02125311;cougar;feline
n02447366;badger;carnivore
n02109047;Great_Dane;canine
n02092002;Scottish_deerhound;canine
n02442845;mink;matter
n02504458;African_elephant;mammal
n02114712;red_wolf;canine
n02128925;jaguar;feline
n02117135;hyena;canine
n02138441;meerkat;carnivore
n02493509;titi;plant
n02443484;black-footed_ferret;carnivore
n02110341;carriage_dog;canine
n02445715;polecat;carnivore
n02093256;Staffordshire_bullterrier;canine
n02112826;corgi;canine
n02106382;Bouvier_des_Flandres;canine
n02441942;mink;matter
n02113712;miniature_poodle;canine
n02488702;colobus;primate
n02123159;tiger_cat;feline
n02114855;coyote;canine
n02094433;Yorkshire_terrier;canine
n02111277;Newfoundland;canine
n02132136;brown_bear;carnivore
n02119022;red_fox;plant
n02120505;grey_fox;canine
n02086079;Pekinese;canine
n02484975;guenon;primate
n02137549;mongoose;carnivore
n02500267;indri;primate
n02129604;tiger;feline
n02480495;orangutan;primate
n02110806;basenji;canine
n02128385;leopard;matter
n02100583;vizsla;canine
n02494079;squirrel_monkey;primate
n02123597;Siamese_cat;feline
n02481823;chimpanzee;primate
n02489166;proboscis_monkey;primate
n02114548;white_wolf;canine
n02134084;ice_bear;carnivore
n02480855;gorilla;primate
n02108551;Tibetan_mastiff;canine
n02493793;spider_monkey;primate
n02107142;Doberman;canine
n02483708;siamang;primate
n02099601;golden_retriever;canine
n02106166;Border_collie;canine
n02090827;greyhound;canine
n02326432;hare;mammal
n02108089;dog;canine
n02486261;patas;primate
n02486410;baboon;primate
n02487347;macaque;primate
n02112497;griffon;entity
n02099267;flat-coated_retriever;canine
n02109961;Eskimo_dog;canine
n02101388;Brittany_spaniel;canine
n02113799;standard_poodle;canine
n02128757;snow_leopard;feline
n02101006;Gordon_setter;canine
n02115641;dingo;canine
n02120079;Arctic_fox;canine
n02133161;American_black_bear;carnivore
n02328150;Angora;entity
n02492660;howler_monkey;primate
n02510455;giant_panda;carnivore
n02085620;Chihuahua;entity
n02123045;tabby;feline
n02490219;marmoset;primate
n02109525;Saint_Bernard;canine
n02508021;raccoon;matter
n02443114;polecat;carnivore
n02483362;gibbon;mammal
n02325366;wood_rabbit;mammal
n02129165;lion;feline
n02100877;Irish_setter;canine
n02504013;Indian_elephant;mammal
n02497673;Madagascar_cat;primate
n02087394;Rhodesian_ridgeback;canine
n02127052;lynx;entity
n02116738;African_hunting_dog;canine
n02488291;langur;primate
n02114367;timber_wolf;canine
n02130308;cheetah;feline
n02134418;sloth_bear;carnivore
n02106662;German_shepherd;canine
n02444819;otter;matter
n04086273;revolver;device
n04507155;umbrella;covering
n04147183;schooner;container
n04102037;in-line_skate;equipment
n04555897;watch;device
n04254680;soccer_ball;equipment
n02672831;accordion;device
n02219486;ant;invertebrate
n02317335;starfish;invertebrate
n01968897;chambered_nautilus;invertebrate
n11978233;sunflower;plant
n03301568;euphonium;device
n03452741;grand_piano;device
n03642806;laptop;device
n13111881;bonsai;plant
n07745940;strawberry;natural_object
n02918964;bumper_car;conveyance
n02690373;airliner;conveyance
n04552348;warplane;conveyance
n02692877;airship;conveyance
n02782093;balloon;conveyance
n03344393;fireboat;conveyance
n03447447;gondola;container
n04273569;speedboat;conveyance
n03662601;lifeboat;conveyance
n02951358;canoe;conveyance
n02981792;catamaran;conveyance
n04483307;trimaran;conveyance
n03095699;container_ship;conveyance
n03673027;liner;entity
n02687172;aircraft_carrier;conveyance
n04347754;submarine;conveyance
n03478589;half_track;conveyance
n04389033;tank;container
n03773504;missile;conveyance
n02860847;bobsled;conveyance
n03218198;dogsled;conveyance
n02835271;bicycle-built-for-two;container
n03792782;mountain_bike;container
n03393912;freight_car;container
n03895866;passenger_car;container
n02797295;barrow;entity
n04204347;shopping_cart;container
n03791053;motor_scooter;container
n03384352;forklift;container
n03272562;electric_locomotive;container
n04310018;steam_locomotive;container
n02704792;amphibian;amphibian
n02701002;ambulance;container
n02814533;beach_wagon;container
n02930766;cab;structure
n03100240;convertible;container
n03594945;jeep;container
n03670208;limousine;container
n03770679;minivan;container
n03777568;Model_T;container
n04037443;racer;entity
n03444034;go-kart;container
n03445924;golfcart;equipment
n03785016;moped;container
n04252225;snowplow;container
n03345487;fire_engine;container
n03417042;garbage_truck;container
n03930630;pickup;container
n04467665;trailer_truck;container
n03977966;police_van;container
n04065272;recreational_vehicle;container
n04252077;snowmobile;container
n04465501;tractor;container
n04482393;tricycle;container
n04509417;unicycle;container
n03538406;horse_cart;container
n03599486;jinrikisha;container
n03868242;oxcart;container
n03122295;covered_wagon;container
n02804414;bassinet;furnishing
n03131574;crib;furnishing
n03388549;four-poster;furnishing
n04491638;trundle_bed;furnishing
n02870880;bookcase;furnishing
n03018349;china_cabinet;furnishing
n03742115;medicine_chest;furnishing
n03636649;lamp;device
n03337140;file;entity
n03360622;flat_bench;furnishing
n03891251;park_bench;furnishing
n03920867;pew;furnishing
n02738535;armchair;furnishing
n02791124;barber_chair;furnishing
n03376595;folding_chair;furnishing
n04373704;swivel_chair;furnishing
n04576002;wheelchair;furnishing
n03179701;desk;furnishing
n03982430;pool_table;equipment
n04381587;table-tennis_table;furnishing
n03201208;dining_table;furnishing
n03290653;entertainment_center;furnishing
n04550184;wardrobe;furnishing
n07739344;crab_apple;plant
n07742313;Granny_Smith;natural_object
n07743544;blueberry;plant
n07743902;cranberry;plant
n07744246;currant;natural_object
n07744811;blackberry;natural_object
n07745466;raspberry;plant
n07746186;persimmon;plant
n07767171;mulberry;plant
n07747607;orange;natural_object
n07749446;kumquat;plant
n07749582;lemon;natural_object
n07749969;grapefruit;plant
n07751451;plum;plant
n07753113;fig;entity
n07753275;pineapple;plant
n07753592;banana;plant
n07754684;jackfruit;plant
n07757132;cherry;matter
n07758680;grape;natural_object
n07760859;custard_apple;plant
n07762913;durian;plant
n07764155;mango;plant
n07765208;elderberry;plant
n07765361;guava;plant
n07766173;litchi;plant
n07768694;pomegranate;plant
n07769584;quince;plant
n11636835;juniper_berry;natural_object
n12158031;gourd;container
n12267677;acorn;natural_object
n12301445;olive;natural_object
n12620546;hip;entity
n13133613;ear;entity
n07770763;pumpkin_seed;natural_object
n07775197;sunflower_seed;natural_object
n07929351;coffee_bean;natural_object
n11879895;rapeseed;natural_object
n12144580;corn;plant
n12768682;buckeye;natural_object
n13136316;bean;matter
n07737745;peanut;natural_object
n07771212;walnut;natural_object
n07772147;cashew;plant
n07772274;chestnut;matter
n07772788;hazelnut;plant
n07772935;coconut;matter
n07774719;pecan;matter
n07775050;pistachio;plant
n07767549;black_olive;natural_object
n12544539;lentil;matter
n12560282;pea;matter
n11748811;peanut;natural_object
n12172364;okra;natural_object
n04515003;upright;device
n03017168;chime;device
n03249569;drum;device
n03447721;gong;device
n03720891;maraca;device
n03721384;marimba;device
n02787622;banjo;device
n02992211;cello;device
n04536866;violin;device
n03495258;harp;device
n02676566;acoustic_guitar;device
n03272010;electric_guitar;device
n03110669;cornet;device
n03394916;French_horn;device
n04487394;trombone;device
n03494278;harmonica;device
n03854815;organ_pipe;device
n03884397;panpipe;device
n02804610;bassoon;device
n03838899;oboe;device
n04141076;sax;device
n03372029;flute;device
n11721337;lesser_celandine;plant
n11725821;wood_anemone;plant
n11727540;blue_columbine;plant
n11733054;delphinium;plant
n11736694;nigella;plant
n11793779;calla_lily;plant
n11805956;sandwort;plant
n11807979;pink;entity
n11810358;baby's_breath;plant
n11821184;ice_plant;plant
n11826198;globe_amaranth;plant
n11839568;four_o'clock;plant
n11859737;Virginia_spring_beauty;plant
n11887119;wallflower;plant
n11888800;damask_violet;plant
n11889619;candytuft;plant
n11901294;Iceland_poppy;plant
n11901597;prickly_poppy;plant
n11901977;oriental_poppy;plant
n11903671;celandine;plant
n11906917;blue_poppy;plant
n11907100;Welsh_poppy;plant
n11908846;celandine_poppy;plant
n11904109;corydalis;plant
n11921395;pearly_everlasting;plant
n11980318;strawflower;plant
n11923397;yellow_chamomile;plant
n12023407;dusty_miller;plant
n12023726;tansy;plant
n11939491;daisy;plant
n11943660;common_marigold;plant
n11943992;China_aster;plant
n11947802;cornflower;plant
n11950345;chrysanthemum;natural_object
n11955896;mistflower;plant
n11958080;cosmos;natural_object
n11960245;dahlia;plant
n11962272;coneflower;plant
n11969607;blue_daisy;plant
n11971248;gazania;plant
n11971783;African_daisy;plant
n12043673;male_orchis;plant
n12043836;butterfly_orchid;plant
n12044467;aerides;plant
n12047345;brassavola;plant
n12047884;spider_orchid;plant
n12049282;grass_pink;plant
n12049562;calypso;plant
n12050533;cattleya;plant
n12051103;red_helleborine;plant
n12052787;coelogyne;plant
n12055516;cymbid;plant
n12056217;lady's_slipper;plant
n12058630;marsh_orchid;plant
n12059314;dendrobium;plant
n12059625;disa;plant
n12062468;helleborine;plant
n12064389;fragrant_orchid;plant
n12065316;fringed_orchis;plant
n12069679;lizard_orchid;plant
n12070016;laelia;plant
n12072722;masdevallia;plant
n12073991;odontoglossum;plant
n12074408;oncidium;plant
n12074867;bee_orchid;plant
n12075010;fly_orchid;plant
n12075151;spider_orchid;plant
n12076223;phaius;plant
n12076577;moth_orchid;plant
n12083591;ladies'_tresses;plant
n12084890;stanhopea;plant
n12085267;stelis;plant
n12086012;vanda;plant
n12093329;cyclamen;plant
n12290748;centaury;plant
n12293723;gentian;plant
n12360108;begonia;plant
n12606438;commelina;plant
n12683407;scabious;plant
n12830222;achimenes;plant
n12833149;African_violet;plant
n12833985;streptocarpus;plant
n12836862;scorpionweed;plant
n12879527;calceolaria;plant
n12884260;toadflax;plant
n12890265;veronica;plant
n11709205;star_anise;plant
n11756669;wattle;entity
n11757851;huisache;plant
n11759404;silk_tree;plant
n11759853;rain_tree;plant
n11770256;dita;plant
n12154773;pandanus;matter
n12202936;linden;matter
n12261808;American_beech;plant
n12266796;New_Zealand_beech;plant
n12269241;live_oak;plant
n12272883;shingle_oak;plant
n12276872;pin_oak;plant
n12278650;cork_oak;plant
n12281788;yellow_birch;plant
n12281974;American_white_birch;plant
n12282737;downy_birch;plant
n12284262;alder;matter
n12302071;fringe_tree;plant
n12304703;European_ash;plant
n12401684;fig;entity
n12407079;witch_elm;plant
n12407222;Dutch_elm;plant
n12478768;cabbage_tree;plant
n12492106;golden_shower_tree;plant
n12495895;honey_locust;plant
n12496427;Kentucky_coffee_tree;plant
n12523475;Brazilian_rosewood;plant
n12496949;logwood;matter
n12527738;coral_tree;plant
n12570394;Japanese_pagoda_tree;plant
n12570972;kowhai;plant
n12582231;palm;entity
n12663023;Arabian_coffee;plant
n12713866;cork_tree;plant
n12726670;weeping_willow;plant
n12727101;pussy_willow;plant
n12727518;goat_willow;plant
n12741792;China_tree;plant
n12765115;pepper_tree;plant
n12774299;balata;matter
n12916511;teak;matter
n11664418;ginkgo;plant
n11608250;pine;plant
n11695974;ilang-ilang;entity
n11703669;laurel;plant
n11709674;magnolia;covering
n11712282;tulip_tree;plant
n12189987;baobab;plant
n12190410;kapok;matter
n12199790;red_beech;plant
n12201580;cacao;plant
n12242409;sorrel_tree;plant
n12317296;iron_tree;plant
n12345899;mangrove;plant
n12403994;paper_mulberry;plant
n12513613;Judas_tree;plant
n12513933;redbud;plant
n12658118;mountain_ash;plant
n12717072;ailanthus;plant
n12753007;silver_maple;plant
n12754003;Oregon_maple;plant
n12754981;sycamore;matter
n12755225;box_elder;plant
n12755727;Japanese_maple;plant
n12756457;holly;plant
n12946849;dogwood;plant
n09246464;cliff;geological_formation
n09344324;lunar_crater;geological_formation
n09468604;valley;geological_formation
n09193705;alp;geological_formation
n09472597;volcano;entity
n09399592;promontory;geological_formation
n09421951;sandbar;natural_object
n09270735;dune;geological_formation
n09256479;coral_reef;geological_formation
n09332890;lakeside;geological_formation
n09428293;seashore;geological_formation
n09288635;geyser;geological_formation
n03075097;comb;device
n02764044;ax;implement
n03020692;chisel;implement
n03041632;cleaver;implement
n03973628;pocketknife;implement
n03954731;plane;conveyance
n04127521;safety_razor;implement
n04185804;shaver;implement
n04332074;straight_razor;implement
n04148054;scissors;implement
n03239726;drill;implement
n03649909;lawn_mower;implement
n03481172;hammer;device
n02956795;cap_opener;implement
n03109150;corkscrew;implement
n02951585;can_opener;implement
n03970156;plunger;device
n04140064;saw;device
n04154565;screwdriver;implement
n04208210;shovel;implement
n04489817;trowel;implement
n02680754;adjustable_wrench;implement
n03967562;plow;implement
n03000684;chain_saw;device
n03034663;circular_saw;device
n04050066;rake;implement
n01795545;black_grouse;bird
n01796340;ptarmigan;bird
n01797886;ruffed_grouse;bird
n01798484;prairie_chicken;bird
n01803078;pheasant;bird
n01806567;quail;bird
n01807496;partridge;bird
n01484850;great_white_shark;fish
n01491361;tiger_shark;fish
n01494475;hammerhead;fish
n01496331;electric_ray;fish
n01498041;stingray;fish
n02514041;barracouta;fish
n02536864;coho;fish
n02537525;rainbow_trout;fish
n02568087;striped_bass;matter
n02640242;sturgeon;fish
n02641379;gar;fish
n01664065;loggerhead;reptile
n01665541;leatherback_turtle;reptile
n01667114;mud_turtle;reptile
n01667778;terrapin;reptile
n01669191;box_turtle;reptile
n01675722;banded_gecko;reptile
n01677366;common_iguana;reptile
n01682714;American_chameleon;reptile
n01685808;whiptail;reptile
n01687978;agama;reptile
n01688243;frilled_lizard;reptile
n01689811;alligator_lizard;reptile
n01692333;Gila_monster;reptile
n01693334;green_lizard;reptile
n01694178;African_chameleon;reptile
n01695060;Komodo_dragon;reptile
n01728572;thunder_snake;reptile
n01728920;ringneck_snake;reptile
n01729322;hognose_snake;reptile
n01729977;green_snake;reptile
n01734418;king_snake;reptile
n01735189;garter_snake;reptile
n01737021;water_snake;reptile
n01739381;vine_snake;reptile
n01740131;night_snake;reptile
n01742172;boa_constrictor;reptile
n01748264;Indian_cobra;reptile
n01749939;green_mamba;reptile
n01753488;horned_viper;reptile
n01629819;European_fire_salamander;amphibian
n01630670;common_newt;amphibian
n01632777;axolotl;amphibian
n01641206;wood-frog;amphibian
n01641391;leopard_frog;amphibian
n01641577;bullfrog;amphibian
n01644373;tree_frog;amphibian
n01644900;tailed_frog;amphibian
n02824448;bell;device
n04579432;whistle;entity
n03876231;paintbrush;device
n03483316;hand_blower;device
n03868863;oxygen_mask;device
n04251144;snorkel;device
n03261776;earphone;device
n03691459;loudspeaker;device
n03759954;microphone;device
n03793489;mouse;mammal
n04143140;scanner;device
n04464615;trackball;device
n03271574;electric_fan;device
n03467068;guillotine;entity
n02794156;barometer;device
n04118776;rule;device
n03841143;odometer;device
n04141975;scale;device
n04421872;thermometer;device
n02708093;analog_clock;device
n03196217;digital_clock;device
n03909406;pendulum_clock;device
n03544143;hourglass;device
n04355338;sundial;device
n04317175;stethoscope;device
n04376876;syringe;device
n02841315;binoculars;device
n04009552;projector;device
n03484931;hand_glass;device
n03852688;optical_telescope;device
n04044716;radio_telescope;device
n02879718;bow;device
n02950826;cannon;artifact
n03701391;machine_gun;device
n04090263;rifle;device
n04373894;sword;device
n03085013;computer_keyboard;equipment
n03126707;crane;device
n03666591;lighter;device
n02666196;abacus;artifact
n03483823;hand_calculator;device
n02977058;cash_machine;device
n03180011;desktop_computer;device
n03485407;hand-held_computer;device
n06359193;web_site;device
n03496892;harvester;device
n04428191;thresher;device
n04004767;printer;device
n04243546;slot;entity
n04525305;vending_machine;device
n04179913;sewing_machine;commodity
n03602883;joystick;implement
n03425413;gas_pump;device
n02966193;carousel;entity
n03329302;Ferris_wheel;device
n04102406;roller_coaster;device
n03492542;hard_disc;device
n03359436;flash_memory;device
n02965783;car_mirror;device
n04258138;solar_dish;device
n04074963;remote_control;device
n02910353;buckle;device
n02928608;button;device
n03476684;hair_slide;device
n03886762;paper_clip;device
n03627232;knot;entity
n03075370;combination_lock;device
n03874599;padlock;device
n03804744;nail;structure
n03940256;pin;artifact
n04153751;screw;artifact
n04162706;seat_belt;commodity
n04210120;shredder;device
n02948072;candle;device
n03358172;flash;entity
n03018712;Chinese_lantern;device
n03590841;jack-o'-lantern;entity
n03794056;mousetrap;device
n04275548;spider_web;device
n01768244;trilobite;invertebrate
n01770081;harvestman;invertebrate
n01770393;scorpion;invertebrate
n01773157;black_and_gold_garden_spider;invertebrate
n01773549;barn_spider;invertebrate
n01773797;garden_spider;invertebrate
n01774384;black_widow;invertebrate
n01774750;tarantula;invertebrate
n01775062;wolf_spider;invertebrate
n01776313;tick;invertebrate
n01779629;mite;invertebrate
n01784675;centipede;invertebrate
n01786646;millipede;invertebrate
n01787835;horseshoe_crab;invertebrate
n01990800;isopod;invertebrate
n01978287;Dungeness_crab;invertebrate
n01978455;rock_crab;invertebrate
n01980166;fiddler_crab;invertebrate
n01981276;king_crab;invertebrate
n01983481;American_lobster;invertebrate
n01984695;spiny_lobster;invertebrate
n01985128;crayfish;invertebrate
n01986214;hermit_crab;invertebrate
n01986806;shrimp;invertebrate
n01998183;barnacle;invertebrate
n02165105;tiger_beetle;invertebrate
n02165456;ladybug;invertebrate
n02167151;ground_beetle;invertebrate
n02168699;long-horned_beetle;invertebrate
n02169497;leaf_beetle;invertebrate
n02177972;weevil;invertebrate
n02190166;fly;invertebrate
n02200198;mosquito;invertebrate
n02206856;bee;invertebrate
n02226429;grasshopper;invertebrate
n02229544;cricket;invertebrate
n02231487;walking_stick;invertebrate
n02233338;cockroach;invertebrate
n02236044;mantis;invertebrate
n02256656;cicada;invertebrate
n02259212;leafhopper;invertebrate
n02262449;mayfly;invertebrate
n02264363;lacewing;invertebrate
n02268443;dragonfly;invertebrate
n02268853;damselfly;invertebrate
n02274822;nymphalid;invertebrate
n02277742;ringlet;invertebrate
n02279972;monarch;invertebrate
n02280649;cabbage_butterfly;invertebrate
n02281406;sulphur_butterfly;invertebrate
n02281787;lycaenid;invertebrate
n02283201;moth;invertebrate
n01909906;polyp;invertebrate
n01910747;jellyfish;invertebrate
n01914609;sea_anemone;invertebrate
n01915811;coral;invertebrate
n01924916;flatworm;invertebrate
n01930112;nematode;invertebrate
n01935395;earthworm;invertebrate
n01943899;conch;invertebrate
n01944390;snail;invertebrate
n01945685;slug;invertebrate
n01950731;sea_slug;invertebrate
n01953361;cowrie;invertebrate
n01955084;chiton;invertebrate
n01956481;clam;invertebrate
n01963571;mussel;invertebrate
n02319095;sea_urchin;invertebrate
n02321529;sea_cucumber;invertebrate
n04496726;tumble-dryer;commodity
n03150511;curling_iron;commodity
n03584829;iron;matter
n03297495;espresso_maker;commodity
n03543254;hot_plate;commodity
n03557692;ice_maker;commodity
n03761084;microwave;entity
n03259280;Dutch_oven;commodity
n04111531;rotisserie;commodity
n03273740;electric_range;commodity
n04003241;Primus_stove;commodity
n04442312;toaster;commodity
n04542943;waffle_iron;commodity
n04517823;vacuum;commodity
n03207941;dishwasher;commodity
n04070727;refrigerator;commodity
n04554684;washer;commodity
n02997607;ceramic_ware;implement
n03400231;frying_pan;implement
n04596742;wok;implement
n02939185;caldron;implement
n03063689;coffeepot;implement
n04398044;teapot;implement
n04270147;spatula;implement
n03266371;eggbeater;conveyance
n04486054;triumphal_arch;structure
n02898711;bridge;structure
n02793495;barn;structure
n03457902;greenhouse;structure
n03661043;library;structure
n03416489;garage;structure
n02727426;apiary;structure
n02859443;boathouse;structure
n03028079;church;structure
n03788195;mosque;structure
n04346328;stupa;structure
n03956157;planetarium;structure
n04081281;restaurant;structure
n04233124;skyscraper;structure
n03032252;cinema;structure
n03529860;home_theater;structure
n03697007;lumbermill;structure
n03065424;coil;structure
n03071160;colonnade;structure
n03837869;obelisk;structure
n04458633;totem_pole;structure
n02980441;castle;structure
n04005630;prison;structure
n03461385;grocery_store;structure
n02776631;bakery;structure
n02791270;barbershop;structure
n02871525;bookshop;structure
n02927161;butcher_shop;structure
n03089624;confectionery;structure
n04200800;shoe_shop;structure
n04443257;tobacco_shop;structure
n04462240;toyshop;structure
n03388043;fountain;structure
n03545756;house_of_cards;structure
n03042490;cliff_dwelling;structure
n04613696;yurt;structure
n03216828;dock;structure
n02892201;brass;structure
n03743016;megalith;structure
n02788148;bannister;structure
n02894605;breakwater;structure
n03160309;dam;structure
n03000134;chainlink_fence;structure
n03930313;picket_fence;structure
n04326547;stone_wall;structure
n03459775;grille;structure
n04501370;turnstile;structure
n04411264;tent;structure
n04295881;stadium;structure
n03530642;honeycomb;structure
n02929289;buttress;structure
n02814860;beacon;structure
n04220250;silo;structure
n07727048;kidney_bean;natural_object
n07729485;soy;natural_object
n07725531;green_pea;natural_object
n07726095;chickpea;natural_object
n07720277;chard;plant
n07723559;lettuce;plant
n07732747;cress;plant
n07736692;spinach;plant
n07711080;french_fries;matter
n07711569;mashed_potato;matter
n07720875;bell_pepper;plant
n07721195;pimento;plant
n07721678;jalapeno;plant
n07734292;cherry_tomato;plant
n07735404;parsnip;plant
n07735803;turnip;plant
n07713763;mustard;plant
n07714448;bok_choy;plant
n07714571;head_cabbage;plant
n07714990;broccoli;plant
n07715103;cauliflower;plant
n07715221;brussels_sprouts;plant
n07716358;zucchini;plant
n07716906;spaghetti_squash;plant
n07717410;acorn_squash;plant
n07717556;butternut_squash;plant
n07718472;cucumber;plant
n07718747;artichoke;plant
n07719213;asparagus;plant
n07722485;green_onion;plant
n07723177;shallot;plant
n07723039;leek;plant
n07730033;cardoon;plant
n07730406;celery;plant
n07734744;mushroom;fungus
n07735510;pumpkin;plant
n04209239;shower_curtain;covering
n03594734;jean;commodity
n04194127;shin_guard;commodity
n02971356;carton;entity
n03485794;handkerchief;artifact
n04133789;sandal;covering
n03320519;fancy_dress;commodity
n02747177;ashcan;container
n04125021;safe;container
n06267145;newspaper;artifact
n12985420;truffle;fungus
n03982232;pool_ball;equipment
n03134739;croquet_ball;equipment
n03404251;fur_coat;commodity
n03877674;pajama;commodity
n04423845;thimble;entity
n03877472;pajama;commodity
n04120489;running_shoe;covering
n13032115;morel;fungus
n03062245;cocktail_shaker;container
n03014705;chest;entity
n03717622;manhole_cover;covering
n13001930;shiitake;fungus
n03068998;collar;artifact
n02777292;balance_beam;equipment
n03617480;kimono;commodity
n03623198;knee_pad;commodity
n04229816;ski_mask;covering
n02823428;beer_bottle;container
n03127747;crash_helmet;commodity
n02877765;bottlecap;covering
n04435653;tile_roof;covering
n13049953;polypore;fungus
n03724870;mask;covering
n12987056;lichen;entity
n03797390;mug;entity
n03710637;maillot;commodity
n03379051;football_helmet;commodity
n02807133;bathing_cap;commodity
n03527444;holster;covering
n03924679;photocopier;equipment
n04532106;vestment;commodity
n03571625;ink_bottle;container
n06785654;crossword_puzzle;equipment
n03445777;golf_ball;equipment
n04350905;suit;commodity
n04562935;water_tower;container
n03325584;feather_boa;commodity
n03250847;drumstick;entity
n03757604;metronome;equipment
n04192698;shield;covering
n03026506;Christmas_stocking;commodity
n03534580;hoopskirt;commodity
n02869837;bonnet;commodity
n02799071;baseball;entity
n03314780;face_powder;toiletry
n04141327;scabbard;covering
n02823750;beer_glass;container
n13052670;hen-of-the-woods;fungus
n03637318;lampshade;covering
n02952374;canteen;container
n02883205;bow_tie;commodity
n03709823;mailbag;container
n13011595;gill_fungus;fungus
n02909870;bucket;container
n03207743;dishrag;artifact
n03786901;mortar;artifact
n03521675;hipflask;container
n04453156;toothbrush;implement
n04021028;pullover;commodity
n04367480;swab;implement
n04349306;subway_train;conveyance
n04201297;shoji;covering
n03978966;polo_shirt;commodity
n02916936;bulletproof_vest;covering
n03240683;drilling_platform;equipment
n02840245;binder;device
n02963159;cardigan;commodity
n03974915;point-and-shoot_camera;equipment
n02843684;birdhouse;covering
n03604400;jumper;commodity
n03482405;hamper;device
n13060190;jelly_fungus;fungus
n03902125;pay-phone;equipment
n02882647;bowling_pin;equipment
n02730930;apron;commodity
n04525584;Venetian_blind;covering
n02769748;backpack;container
n02817516;bearskin;matter
n03908714;pencil_sharpener;implement
n02906734;broom;implement
n03788365;mosquito_net;covering
n02667093;abaya;commodity
n03787032;mortarboard;artifact
n03980874;poncho;commodity
n03141823;crutch;implement
n03976467;Polaroid_camera;equipment
n02897820;brick;artifact
n04033901;quill;implement
n04041544;radio;artifact
n12966945;dead-man's-fingers;fungus
n02887489;brace;device
n03146219;cuirass;covering
n03763968;military_uniform;commodity
n03676483;lipstick;toiletry
n04209133;shower_cap;commodity
n03857828;oscilloscope;equipment
n03775071;mitten;commodity
n02892767;brassiere;commodity
n04522168;vase;container
n04118538;rugby_ball;equipment
n03887697;paper_towel;artifact
n13044778;earthstar;fungus
n03291819;envelope;container
n02807616;bathrobe;commodity
n03124170;cowboy_hat;commodity
n04487081;trolleybus;conveyance
n02808440;bathtub;container
n03351979;fishing_rod;implement
n04118021;rug;covering
n12985857;coral_fungus;fungus
n06595351;magazine;artifact
n02917067;bullet_train;conveyance
n02966687;carpenter's_kit;equipment
n03633091;ladle;container
n13040303;stinkhorn;fungus
n03690938;lotion;toiletry
n03476991;hair_spray;toiletry
n02669723;academic_gown;commodity
n03220513;dome;entity
n03127925;crate;container
n04584207;wig;commodity
n03000247;chain_mail;covering
n04418357;theater_curtain;covering
n03781787;monitor;device
n04590129;window_shade;covering
n02795169;barrel;artifact
n03805725;nail_polish;toiletry
n04553703;washbasin;artifact
n02783161;ballpoint;implement
n02802426;basketball;entity
n02808304;bath_towel;commodity
n03844815;oilskin;commodity
n03450230;gown;commodity
n04589890;window_screen;covering
n12998815;agaric;fungus
n02992529;cellular_telephone;equipment
n03825788;nipple;entity
n02790996;barbell;equipment
n03710193;mailbox;container
n03908204;pencil;implement
n02950632;cannon;artifact
n03630383;lab_coat;commodity
n03347037;fire_screen;covering
n03733281;maze;artifact
n03535780;horizontal_bar;equipment
n04259630;sombrero;entity
n03929855;pickelhaube;covering
n04049303;rain_barrel;artifact
n04548362;wallet;container
n02979186;cassette_player;equipment
n02942349;camcorder;equipment
n02825657;bell_cote;covering
n03388183;fountain_pen;implement
n04591157;Windsor_tie;commodity
n04540053;volleyball;entity
n04136333;sarong;commodity
n02865351;bolo_tie;commodity
n02834397;bib;artifact
n03888257;parachute;equipment
n04235860;sleeping_bag;container
n13043926;puffball;fungus
n04404412;television;artifact
n04371430;swimming_trunks;commodity
n03733805;measuring_cup;container
n02895154;breastplate;covering
n04204238;shopping_basket;container
n03558404;ice_skate;equipment
n04131690;saltshaker;container
n03443371;goblet;container
n13037406;gyromitra;fungus
n04239436;sling;matter
n03187595;dial_telephone;equipment
n03595614;jersey;entity
n04146614;school_bus;conveyance
n03598930;jigsaw_puzzle;equipment
n02872752;boot;covering
n04069434;reflex_camera;equipment
n03188531;diaper;commodity
n02786058;Band_Aid;covering
n04409515;tennis_ball;equipment
n03424325;gasmask;covering
n03014440;chessman;equipment
n03223299;doormat;covering
n03816136;needle;implement
n03680355;Loafer;covering
n04033995;quilt;covering
n03505504;headscarf;commodity
n037107211;tank_suit;commodity
n037107212;maillot;commodity
n04392985;tape_player;equipment
n03047690;clog;covering
n03584254;iPod;equipment
n02773838;bag;container
n13054560;bolete;fungus
n03309356;eyepatch;covering
n03420801;garrison_cap;commodity
n03950228;pitcher;person
n03729826;matchstick;implement
n02837789;bikini;commodity
n04254777;sock;commodity
n02988304;CD_player;equipment
n03657121;lens_cap;covering
n04417672;thatch;covering
n04523525;vault;structure
n04205318;short_pants;commodity
n02815834;beaker;container
n03888605;parallel_bars;equipment
n04498389;turban;commodity
n03355925;flagpole;device
n04116512;rubber_eraser;implement
n04325704;stole;commodity
n03492922;hard_hat;covering
n03255030;dumbbell;equipment
n01440764;tench;fish
n01443537;goldfish;fish
n01514668;cock;entity
n01514859;hen;bird
n01518878;ostrich;bird
n01530575;brambling;bird
n01531178;goldfinch;bird
n01532829;house_finch;bird
n01534433;junco;bird
n01537544;indigo_bunting;bird
n01558993;robin;bird
n01560419;bulbul;bird
n01580077;jay;bird
n01582220;magpie;bird
n01592084;chickadee;bird
n01601694;water_ouzel;bird
n01608432;kite;entity
n01614925;bald_eagle;bird
n01616318;vulture;bird
n01622779;great_grey_owl;bird
n01631663;eft;amphibian
n01632458;spotted_salamander;amphibian
n01697457;African_crocodile;reptile
n01698640;American_alligator;reptile
n01704323;triceratops;reptile
n01744401;rock_python;reptile
n01751748;sea_snake;reptile
n01755581;diamondback;reptile
n01756291;sidewinder;reptile
n01806143;peacock;invertebrate
n01817953;African_grey;bird
n01818515;macaw;bird
n01819313;sulphur-crested_cockatoo;bird
n01820546;lorikeet;bird
n01824575;coucal;bird
n01828970;bee_eater;bird
n01829413;hornbill;bird
n01833805;hummingbird;bird
n01843065;jacamar;bird
n01843383;toucan;bird
n01847000;drake;bird
n01855032;red-breasted_merganser;bird
n01855672;goose;bird
n01860187;black_swan;bird
n01871265;tusker;mammal
n01872401;echidna;mammal
n01873310;platypus;mammal
n01877812;wallaby;mammal
n01882714;koala;mammal
n01883070;wombat;mammal
n01917289;brain_coral;invertebrate
n02002556;white_stork;bird
n02002724;black_stork;bird
n02006656;spoonbill;bird
n02007558;flamingo;bird
n02009229;little_blue_heron;bird
n02009912;American_egret;bird
n02011460;bittern;bird
n02012849;gruidae;entity
n02013706;limpkin;bird
n02017213;European_gallinule;bird
n02018207;American_coot;bird
n02018795;bustard;bird
n02025239;ruddy_turnstone;bird
n02027492;red-backed_sandpiper;bird
n02028035;redshank;bird
n02033041;dowitcher;bird
n02037110;oystercatcher;bird
n02051845;pelican;bird
n02056570;king_penguin;bird
n02058221;albatross;entity
n02066245;grey_whale;mammal
n02071294;killer_whale;mammal
n02074367;dugong;mammal
n02077923;sea_lion;mammal
n02085782;Japanese_spaniel;canine
n02085936;Maltese_dog;canine
n02086240;Shih-Tzu;canine
n02086646;Blenheim_spaniel;canine
n02086910;papillon;canine
n02087046;toy_terrier;canine
n02088094;Afghan_hound;canine
n02088238;basset;canine
n02088364;beagle;canine
n02088466;bloodhound;canine
n02088632;bluetick;canine
n02089078;black-and-tan_coonhound;canine
n02089867;Walker_hound;canine
n02089973;English_foxhound;canine
n02090379;redbone;canine
n02090622;borzoi;canine
n02090721;Irish_wolfhound;canine
n02091032;Italian_greyhound;canine
n02091134;whippet;canine
n02091244;Ibizan_hound;canine
n02091467;Norwegian_elkhound;canine
n02091635;otterhound;canine
n02091831;Saluki;canine
n02092339;Weimaraner;canine
n02093428;American_Staffordshire_terrier;canine
n02093647;Bedlington_terrier;canine
n02093754;Border_terrier;canine
n02093859;Kerry_blue_terrier;canine
n02093991;Irish_terrier;canine
n02094114;Norfolk_terrier;canine
n02094258;Norwich_terrier;canine
n02095314;wire-haired_fox_terrier;canine
n02095570;Lakeland_terrier;canine
n02095889;Sealyham_terrier;canine
n02096051;Airedale;canine
n02096177;cairn;entity
n02096437;Dandie_Dinmont;canine
n02096585;Boston_bull;canine
n02097047;miniature_schnauzer;canine
n02097130;giant_schnauzer;canine
n02097209;standard_schnauzer;canine
n02097298;Scotch_terrier;canine
n02097474;Tibetan_terrier;canine
n02097658;silky_terrier;canine
n02098105;soft-coated_wheaten_terrier;canine
n02098286;West_Highland_white_terrier;canine
n02098413;Lhasa;entity
n02099429;curly-coated_retriever;canine
n02099712;Labrador_retriever;canine
n02099849;Chesapeake_Bay_retriever;canine
n02100236;German_short-haired_pointer;canine
n02101556;clumber;canine
n02102040;English_springer;canine
n02102177;Welsh_springer_spaniel;canine
n02102318;cocker_spaniel;canine
n02102480;Sussex_spaniel;canine
n02102973;Irish_water_spaniel;canine
n02104029;kuvasz;canine
n02104365;schipperke;canine
n02105056;groenendael;canine
n02105162;malinois;canine
n02105251;briard;canine
n02105412;kelpie;entity
n02105505;komondor;canine
n02105641;Old_English_sheepdog;canine
n02105855;Shetland_sheepdog;canine
n02106030;collie;canine
n02106550;Rottweiler;canine
n02107312;miniature_pinscher;canine
n02107574;Greater_Swiss_Mountain_dog;canine
n02107683;Bernese_mountain_dog;canine
n02107908;Appenzeller;canine
n02108000;EntleBucher;canine
n02108422;bull_mastiff;canine
n02108915;French_bulldog;canine
n02110063;malamute;canine
n02110185;Siberian_husky;canine
n02110627;affenpinscher;canine
n02110958;pug;canine
n02111129;Leonberg;canine
n02111500;Great_Pyrenees;canine
n02111889;Samoyed;canine
n02112018;Pomeranian;canine
n02112137;chow;entity
n02112350;keeshond;canine
n02112706;Brabancon_griffon;canine
n02113023;Pembroke;canine
n02113186;Cardigan;commodity
n02113624;toy_poodle;canine
n02113978;Mexican_hairless;canine
n02115913;dhole;canine
n02172182;dung_beetle;invertebrate
n02174001;rhinoceros_beetle;invertebrate
n02276258;admiral;invertebrate
n02342885;hamster;mammal
n02346627;porcupine;mammal
n02356798;fox_squirrel;mammal
n02361337;marmot;mammal
n02363005;beaver;matter
n02364673;guinea_pig;mammal
n02389026;sorrel;plant
n02391049;zebra;ungulate
n02395406;hog;ungulate
n02396427;wild_boar;ungulate
n02397096;warthog;ungulate
n02398521;hippopotamus;ungulate
n02403003;ox;ungulate
n02408429;water_buffalo;ungulate
n02410509;bison;ungulate
n02412080;ram;entity
n02415577;bighorn;ungulate
n02417914;ibex;ungulate
n02422106;hartebeest;ungulate
n02422699;impala;ungulate
n02423022;gazelle;ungulate
n02437312;Arabian_camel;ungulate
n02437616;llama;ungulate
n02454379;armadillo;mammal
n02457408;three-toed_sloth;mammal
n02492035;capuchin;mammal
n02526121;eel;fish
n02606052;rock_beauty;fish
n02607072;anemone_fish;fish
n02643566;lionfish;fish
n02655020;puffer;matter
n02699494;altar;furnishing
n02749479;assault_rifle;device
n02974003;car_wheel;device
n02978881;cassette;container
n02999410;chain;entity
n03016953;chiffonier;furnishing
n03045698;cloak;covering
n03063599;coffee_mug;container
n03124043;cowboy_boot;covering
n03125729;cradle;furnishing
n03133878;Crock_Pot;implement
n03197337;digital_watch;device
n03208938;disk_brake;device
n03498962;hatchet;device
n03532672;hook;device
n03658185;letter_opener;implement
n03692522;loupe;device
n03706229;magnetic_compass;device
n03733131;maypole;device
n03764736;milk_can;container
n03769881;minibus;conveyance
n03770439;miniskirt;commodity
n03775546;mixing_bowl;container
n03776460;mobile_home;structure
n03777754;modem;equipment
n03781244;monastery;structure
n03782006;monitor;device
n03792972;mountain_tent;structure
n03796401;moving_van;container
n03803284;muzzle;artifact
n03814639;neck_brace;device
n03814906;necklace;artifact
n03832673;notebook;artifact
n03840681;ocarina;device
n03843555;oil_filter;device
n03854065;organ;entity
n03866082;overskirt;commodity
n03871628;packet;entity
n03873416;paddle;implement
n03874293;paddlewheel;device
n03877845;palace;structure
n03891332;parking_meter;device
n03899768;patio;structure
n03903868;pedestal;device
n03908618;pencil_box;container
n03916031;perfume;entity
n03920288;Petri_dish;container
n03929660;pick;entity
n03933933;pier;artifact
n03935335;piggy_bank;container
n03937543;pill_bottle;container
n03938244;pillow;artifact
n03942813;ping-pong_ball;equipment
n03944341;pinwheel;plant
n03947888;pirate;person
n03958227;plastic_bag;container
n03961711;plate_rack;structure
n03976657;pole;implement
n03983396;pop_bottle;container
n03991062;pot;implement
n03992509;potter's_wheel;device
n03995372;power_drill;implement
n03998194;prayer_rug;covering
n04008634;projectile;device
n04019541;puck;entity
n04023962;punching_bag;equipment
n04026417;purse;container
n04039381;racket;implement
n04040759;radiator;device
n04067472;reel;equipment
n04099969;rocking_chair;furnishing
n04127249;safety_pin;device
n04149813;scoreboard;artifact
n04152593;screen;artifact
n04228054;ski;device
n04238763;slide_rule;device
n04239074;sliding_door;structure
n04254120;soap_dispenser;container
n04263257;soup_bowl;container
n04264628;space_bar;implement
n04265275;space_heater;device
n04266014;space_shuttle;conveyance
n04277352;spindle;matter
n04285008;sports_car;container
n04286575;spotlight;entity
n04296562;stage;entity
n04311004;steel_arch_bridge;structure
n04311174;steel_drum;device
n04328186;stopwatch;device
n04330267;stove;commodity
n04332243;strainer;device
n04335435;streetcar;container
n04336792;stretcher;structure
n04344873;studio_couch;furnishing
n04355933;sunglass;device
n04356056;sunglasses;device
n04357314;sunscreen;toiletry
n04366367;suspension_bridge;structure
n04370456;sweatshirt;commodity
n04371774;swing;entity
n04372370;switch;device
n04380533;table_lamp;furnishing
n04399382;teddy;artifact
n04429376;throne;furnishing
n04447861;toilet_seat;furnishing
n04456115;torch;device
n04461696;tow_truck;container
n04476259;tray;container
n04479046;trench_coat;commodity
n04485082;tripod;device
n04493381;tub;container
n04505470;typewriter_keyboard;device
n04525038;velvet;artifact
n04532670;viaduct;structure
n04548280;wall_clock;device
n04557648;water_bottle;container
n04560804;water_jug;container
n04579145;whiskey_jug;container
n04591713;wine_bottle;container
n04592741;wing;entity
n04597913;wooden_spoon;entity
n04599235;wool;artifact
n04604644;worm_fence;structure
n04606251;wreck;entity
n04612504;yawl;conveyance
n06596364;comic_book;artifact
n06794110;street_sign;entity
n06874185;traffic_light;entity
n07248320;book_jacket;covering
n07565083;menu;entity
n07579787;plate;equipment
n07583066;guacamole;matter
n07584110;consomme;matter
n07590611;hot_pot;matter
n07613480;trifle;matter
n07614500;ice_cream;matter
n07615774;ice_lolly;matter
n07684084;French_loaf;matter
n07693725;bagel;matter
n07695742;pretzel;matter
n07697313;cheeseburger;matter
n07697537;hotdog;matter
n07802026;hay;matter
n07831146;carbonara;matter
n07836838;chocolate_sauce;matter
n07860988;dough;matter
n07871810;meat_loaf;matter
n07873807;pizza;matter
n07875152;potpie;matter
n07880968;burrito;matter
n07892512;red_wine;matter
n07920052;espresso;matter
n07930864;cup;container
n07932039;eggnog;matter
n09229709;bubble;entity
n09835506;ballplayer;person
n10148035;groom;person
n10565667;scuba_diver;person
n12057211;yellow_lady's_slipper;plant
n15075141;toilet_tissue;matter
