datasetName,queryId,answerId,distance,time,totalTime,seriesCompared,totalSeriesCompared,leavesVisited,totalLeavesVisited
seismic_size100M,0,0,29.864027,1803.000000,143494.000000,1452,391681,1,6809
seismic_size100M,0,bestNN,29.707214,13403.000000,143494.000000,22418,391681,22,6809
seismic_size100M,1,0,99.012856,1737.000000,210006.000000,1912,20690,1,27542
seismic_size100M,1,1,82.592987,9585.000000,210006.000000,9189,20690,29,27542
seismic_size100M,1,bestNN,82.283745,9919.000000,210006.000000,11183,20690,57,27542
seismic_size100M,2,0,375.075134,1853.000000,6013081.000000,1971,99234656,1,118531
seismic_size100M,2,1,325.740509,21831.000000,6013081.000000,22395,99234656,8,118531
seismic_size100M,2,2,322.075104,82594.000000,6013081.000000,902585,99234656,980,118531
seismic_size100M,2,3,312.611511,97692.000000,6013081.000000,1134853,99234656,1224,118531
seismic_size100M,2,4,306.598511,113024.000000,6013081.000000,1375049,99234656,1487,118531
seismic_size100M,2,bestNN,277.971771,237931.000000,6013081.000000,3272323,99234656,3596,118531
seismic_size100M,3,0,333.587219,1270.000000,5648580.000000,1565,88827042,1,118517
seismic_size100M,3,1,302.355560,21297.000000,5648580.000000,23945,88827042,2,118517
seismic_size100M,3,2,299.772156,21981.000000,5648580.000000,36569,88827042,17,118517
seismic_size100M,3,3,287.097321,28316.000000,5648580.000000,131654,88827042,83,118517
seismic_size100M,3,4,284.348267,29440.000000,5648580.000000,150808,88827042,94,118517
seismic_size100M,3,5,263.633148,33263.000000,5648580.000000,209127,88827042,137,118517
seismic_size100M,3,6,262.405518,125837.000000,5648580.000000,1599983,88827042,1531,118517
seismic_size100M,3,bestNN,254.632050,205025.000000,5648580.000000,2813411,88827042,2821,118517
seismic_size100M,4,bestNN,3.269878,1110.000000,11175.000000,1976,2520,1,309
seismic_size100M,5,bestNN,235.806473,1417.000000,5103248.000000,1996,70811646,1,118409
seismic_size100M,6,0,7.650249,1058.000000,11546.000000,1161,1591,1,575
seismic_size100M,6,1,6.949573,4363.000000,11546.000000,1542,1591,20,575
seismic_size100M,6,bestNN,5.961031,4368.000000,11546.000000,1559,1591,25,575
seismic_size100M,7,0,374.499939,1028.000000,6963000.000000,1037,87421979,1,118513
seismic_size100M,7,1,346.163666,21182.000000,6963000.000000,24153,87421979,4,118513
seismic_size100M,7,2,334.685913,21285.000000,6963000.000000,28109,87421979,13,118513
seismic_size100M,7,3,330.155762,21452.000000,6963000.000000,32319,87421979,18,118513
seismic_size100M,7,4,310.984070,21746.000000,6963000.000000,38011,87421979,21,118513
seismic_size100M,7,5,300.289581,26274.000000,6963000.000000,86410,87421979,58,118513
seismic_size100M,7,6,295.679352,70990.000000,6963000.000000,557043,87421979,409,118513
seismic_size100M,7,7,286.743866,75313.000000,6963000.000000,605342,87421979,447,118513
seismic_size100M,7,8,281.142761,540178.000000,6963000.000000,5777867,87421979,5852,118513
seismic_size100M,7,bestNN,260.072449,1092410.000000,6963000.000000,12177672,87421979,14049,118513
seismic_size100M,8,0,50.539227,957.000000,108836.000000,1742,29310,1,13789
seismic_size100M,8,1,48.667904,7298.000000,108836.000000,4244,29310,28,13789
seismic_size100M,8,2,47.852585,7602.000000,108836.000000,5829,29310,55,13789
seismic_size100M,8,3,46.462830,7640.000000,108836.000000,6348,29310,73,13789
seismic_size100M,8,4,46.407963,9624.000000,108836.000000,12316,29310,254,13789
seismic_size100M,8,5,46.356617,21092.000000,108836.000000,25830,29310,1407,13789
seismic_size100M,8,bestNN,42.380608,21106.000000,108836.000000,25995,29310,1423,13789
seismic_size100M,9,0,360.674713,568.000000,6508050.000000,616,91541034,1,118531
seismic_size100M,9,1,344.707275,14262.000000,6508050.000000,8395,91541034,5,118531
seismic_size100M,9,2,337.018250,14269.000000,6508050.000000,11033,91541034,8,118531
seismic_size100M,9,3,330.249786,14287.000000,6508050.000000,13702,91541034,17,118531
seismic_size100M,9,4,323.690491,14554.000000,6508050.000000,19791,91541034,25,118531
seismic_size100M,9,5,304.043335,14733.000000,6508050.000000,24837,91541034,34,118531
seismic_size100M,9,6,303.190399,20462.000000,6508050.000000,85722,91541034,142,118531
seismic_size100M,9,7,302.841217,21378.000000,6508050.000000,96518,91541034,162,118531
seismic_size100M,9,8,297.196228,22202.000000,6508050.000000,330204,91541034,566,118531
seismic_size100M,9,9,291.800079,25657.000000,6508050.000000,381055,91541034,648,118531
seismic_size100M,9,10,283.426208,26042.000000,6508050.000000,389015,91541034,657,118531
seismic_size100M,9,11,261.197540,58118.000000,6508050.000000,835864,91541034,1454,118531
seismic_size100M,9,bestNN,238.055710,154939.000000,6508050.000000,2195896,91541034,3733,118531
seismic_size100M,10,0,331.819397,1392.000000,7547276.000000,1374,92010237,1,118531
seismic_size100M,10,1,327.200104,20963.000000,7547276.000000,28060,92010237,4,118531
seismic_size100M,10,2,324.733551,20969.000000,7547276.000000,30452,92010237,7,118531
seismic_size100M,10,3,322.344055,21016.000000,7547276.000000,33398,92010237,11,118531
seismic_size100M,10,4,320.035187,21824.000000,7547276.000000,42701,92010237,20,118531
seismic_size100M,10,5,318.415649,23396.000000,7547276.000000,59575,92010237,33,118531
seismic_size100M,10,6,313.841064,25741.000000,7547276.000000,85697,92010237,55,118531
seismic_size100M,10,7,313.213013,56620.000000,7547276.000000,392219,92010237,273,118531
seismic_size100M,10,8,307.008636,63118.000000,7547276.000000,456383,92010237,331,118531
seismic_size100M,10,9,303.054779,153716.000000,7547276.000000,1353606,92010237,1150,118531
seismic_size100M,10,10,297.714844,442235.000000,7547276.000000,4261706,92010237,4256,118531
seismic_size100M,10,bestNN,285.431000,613784.000000,7547276.000000,6030049,92010237,6435,118531
seismic_size100M,11,0,266.997681,183.000000,4155853.000000,93,55725713,1,114000
seismic_size100M,11,1,262.062744,19043.000000,4155853.000000,5870,55725713,7,114000
seismic_size100M,11,2,226.608612,19083.000000,4155853.000000,9085,55725713,10,114000
seismic_size100M,11,3,210.921112,19088.000000,4155853.000000,11871,55725713,15,114000
seismic_size100M,11,4,208.305206,19172.000000,4155853.000000,15661,55725713,23,114000
seismic_size100M,11,5,201.505676,19338.000000,4155853.000000,20423,55725713,28,114000
seismic_size100M,11,6,198.484222,19430.000000,4155853.000000,24398,55725713,35,114000
seismic_size100M,11,bestNN,187.759247,27753.000000,4155853.000000,149274,55725713,209,114000
seismic_size100M,12,0,333.807343,1189.000000,5883970.000000,1475,87187077,1,118531
seismic_size100M,12,1,329.115082,28348.000000,5883970.000000,28751,87187077,5,118531
seismic_size100M,12,2,314.374908,28425.000000,5883970.000000,32762,87187077,12,118531
seismic_size100M,12,3,312.319580,28532.000000,5883970.000000,37511,87187077,16,118531
seismic_size100M,12,4,292.204590,28654.000000,5883970.000000,42134,87187077,20,118531
seismic_size100M,12,5,276.952271,37224.000000,5883970.000000,180633,87187077,121,118531
seismic_size100M,12,6,275.589844,53181.000000,5883970.000000,427197,87187077,299,118531
seismic_size100M,12,7,260.904938,61499.000000,5883970.000000,566544,87187077,401,118531
seismic_size100M,12,8,259.934692,114946.000000,5883970.000000,1424955,87187077,1066,118531
seismic_size100M,12,bestNN,255.791977,282866.000000,5883970.000000,4041282,87187077,3516,118531
seismic_size100M,13,0,310.218018,1034.000000,5709241.000000,1314,86168734,1,118531
seismic_size100M,13,1,306.678650,28519.000000,5709241.000000,32892,86168734,8,118531
seismic_size100M,13,2,305.955811,29328.000000,5709241.000000,48236,86168734,27,118531
seismic_size100M,13,3,287.145294,30814.000000,5709241.000000,74126,86168734,41,118531
seismic_size100M,13,4,262.047241,32515.000000,5709241.000000,103560,86168734,62,118531
seismic_size100M,13,5,256.377625,593692.000000,5709241.000000,8919137,86168734,9938,118531
seismic_size100M,13,bestNN,249.938110,1548084.000000,5709241.000000,23805701,86168734,30831,118531
seismic_size100M,14,0,179.710999,1276.000000,3760206.000000,1771,52536156,1,110203
seismic_size100M,14,1,178.875305,20165.000000,3760206.000000,34564,52536156,14,110203
seismic_size100M,14,2,170.762177,26455.000000,3760206.000000,138989,52536156,102,110203
seismic_size100M,14,3,168.119110,54561.000000,3760206.000000,588096,52536156,510,110203
seismic_size100M,14,bestNN,163.130112,187669.000000,3760206.000000,2695173,52536156,2496,110203
seismic_size100M,15,0,13.485594,958.000000,12344.000000,1418,3703,1,677
seismic_size100M,15,bestNN,11.928877,4361.000000,12344.000000,3133,3703,20,677
seismic_size100M,16,0,93.542732,1003.000000,399107.000000,1274,1539594,1,39130
seismic_size100M,16,1,82.309395,10446.000000,399107.000000,13779,1539594,3,39130
seismic_size100M,16,bestNN,81.499146,11116.000000,399107.000000,27668,1539594,9,39130
seismic_size100M,17,0,335.160553,1334.000000,5699303.000000,1894,90847660,1,118531
seismic_size100M,17,1,328.190796,20814.000000,5699303.000000,26664,90847660,6,118531
seismic_size100M,17,2,326.077118,21038.000000,5699303.000000,33173,90847660,13,118531
seismic_size100M,17,3,288.110046,21353.000000,5699303.000000,41466,90847660,19,118531
seismic_size100M,17,4,272.809631,23727.000000,5699303.000000,82819,90847660,57,118531
seismic_size100M,17,5,271.516693,32293.000000,5699303.000000,226389,90847660,179,118531
seismic_size100M,17,6,266.794006,39446.000000,5699303.000000,342362,90847660,282,118531
seismic_size100M,17,7,250.361557,101091.000000,5699303.000000,1354823,90847660,1369,118531
seismic_size100M,17,bestNN,249.452042,241307.000000,5699303.000000,3659913,90847660,4107,118531
seismic_size100M,18,0,377.556091,358.000000,5728287.000000,285,91633974,1,118531
seismic_size100M,18,1,330.593079,19280.000000,5728287.000000,6225,91633974,3,118531
seismic_size100M,18,2,311.468048,19687.000000,5728287.000000,14714,91633974,14,118531
seismic_size100M,18,3,293.183960,19694.000000,5728287.000000,17261,91633974,22,118531
seismic_size100M,18,4,290.832672,21102.000000,5728287.000000,39886,91633974,53,118531
seismic_size100M,18,5,289.764984,22706.000000,5728287.000000,67586,91633974,88,118531
seismic_size100M,18,6,283.642792,33467.000000,5728287.000000,238093,91633974,323,118531
seismic_size100M,18,7,275.367584,34228.000000,5728287.000000,253221,91633974,343,118531
seismic_size100M,18,8,258.467987,35831.000000,5728287.000000,281231,91633974,384,118531
seismic_size100M,18,9,258.328247,46565.000000,5728287.000000,453308,91633974,636,118531
seismic_size100M,18,10,255.201538,91696.000000,5728287.000000,1171548,91633974,1654,118531
seismic_size100M,18,11,245.552765,204404.000000,5728287.000000,2966211,91633974,4280,118531
seismic_size100M,18,12,242.566071,1025771.000000,5728287.000000,16015741,91633974,23814,118531
seismic_size100M,18,bestNN,239.139267,2156200.000000,5728287.000000,33729384,91633974,49485,118531
seismic_size100M,19,0,153.306396,920.000000,2829248.000000,1231,37906913,1,105072
seismic_size100M,19,1,149.274429,19912.000000,2829248.000000,37695,37906913,20,105072
seismic_size100M,19,2,146.092545,19918.000000,2829248.000000,40546,37906913,21,105072
seismic_size100M,19,3,146.076401,29524.000000,2829248.000000,203953,37906913,149,105072
seismic_size100M,19,bestNN,143.118317,30805.000000,2829248.000000,228251,37906913,169,105072
seismic_size100M,20,0,330.178406,1138.000000,5432359.000000,1501,83477454,1,118531
seismic_size100M,20,1,309.987091,19574.000000,5432359.000000,15587,83477454,2,118531
seismic_size100M,20,2,302.676392,19624.000000,5432359.000000,19510,83477454,5,118531
seismic_size100M,20,3,299.917847,19782.000000,5432359.000000,24770,83477454,7,118531
seismic_size100M,20,4,295.718445,19900.000000,5432359.000000,29457,83477454,11,118531
seismic_size100M,20,5,291.037048,20956.000000,5432359.000000,48842,83477454,27,118531
seismic_size100M,20,6,287.886810,27064.000000,5432359.000000,147162,83477454,95,118531
seismic_size100M,20,7,287.052124,29732.000000,5432359.000000,191782,83477454,125,118531
seismic_size100M,20,8,280.448273,61684.000000,5432359.000000,710457,83477454,506,118531
seismic_size100M,20,9,275.312469,169080.000000,5432359.000000,2421384,83477454,1960,118531
seismic_size100M,20,10,270.133026,214625.000000,5432359.000000,3157977,83477454,2654,118531
seismic_size100M,20,11,262.509003,226566.000000,5432359.000000,3352866,83477454,2833,118531
seismic_size100M,20,bestNN,259.915649,828601.000000,5432359.000000,13080827,83477454,13780,118531
seismic_size100M,21,0,343.996338,1256.000000,5654584.000000,1574,87695423,1,118526
seismic_size100M,21,1,335.431641,23716.000000,5654584.000000,30799,87695423,10,118526
seismic_size100M,21,2,334.260742,23733.000000,5654584.000000,33948,87695423,12,118526
seismic_size100M,21,3,333.296326,23736.000000,5654584.000000,36764,87695423,16,118526
seismic_size100M,21,4,322.588379,23755.000000,5654584.000000,40082,87695423,23,118526
seismic_size100M,21,5,303.941498,23768.000000,5654584.000000,43129,87695423,25,118526
seismic_size100M,21,6,274.567749,24767.000000,5654584.000000,61968,87695423,31,118526
seismic_size100M,21,7,256.769562,61550.000000,5654584.000000,663446,87695423,464,118526
seismic_size100M,21,bestNN,250.578705,1845350.000000,5654584.000000,28995771,87695423,39284,118526
seismic_size100M,22,0,25.362167,951.000000,19378.000000,1671,2741,1,1268
seismic_size100M,22,bestNN,20.222212,4738.000000,19378.000000,2399,2741,17,1268
seismic_size100M,23,0,303.741302,1298.000000,5745842.000000,1658,87520596,1,118526
seismic_size100M,23,1,296.542938,21069.000000,5745842.000000,25868,87520596,11,118526
seismic_size100M,23,2,279.600159,60502.000000,5745842.000000,634292,87520596,619,118526
seismic_size100M,23,bestNN,277.928436,114019.000000,5745842.000000,1466801,87520596,1567,118526
seismic_size100M,24,bestNN,3.089868,561.000000,7058.000000,1061,1287,1,165
seismic_size100M,25,bestNN,65.192818,1256.000000,416757.000000,1825,2804570,1,29143
seismic_size100M,26,0,225.700119,867.000000,3738505.000000,1190,54120275,1,113214
seismic_size100M,26,1,210.728271,19950.000000,3738505.000000,19117,54120275,2,113214
seismic_size100M,26,2,182.775879,20008.000000,3738505.000000,23133,54120275,6,113214
seismic_size100M,26,3,180.389343,20246.000000,3738505.000000,29546,54120275,12,113214
seismic_size100M,26,4,179.998703,20633.000000,3738505.000000,37376,54120275,19,113214
seismic_size100M,26,bestNN,172.848450,22903.000000,3738505.000000,75273,54120275,49,113214
seismic_size100M,27,0,39.172394,816.000000,89783.000000,1298,13751,1,7132
seismic_size100M,27,bestNN,33.422668,5385.000000,89783.000000,4419,13751,21,7132
seismic_size100M,28,0,171.719299,1044.000000,3015813.000000,1683,42231311,1,111020
seismic_size100M,28,1,162.971100,20323.000000,3015813.000000,31980,42231311,15,111020
seismic_size100M,28,bestNN,153.260269,69771.000000,3015813.000000,865520,42231311,751,111020
seismic_size100M,29,0,324.885437,1366.000000,5458269.000000,1932,87906139,1,118531
seismic_size100M,29,1,303.944397,20915.000000,5458269.000000,35200,87906139,13,118531
seismic_size100M,29,2,300.858612,21179.000000,5458269.000000,42182,87906139,21,118531
seismic_size100M,29,3,286.304565,35427.000000,5458269.000000,278055,87906139,198,118531
seismic_size100M,29,4,274.763428,60597.000000,5458269.000000,687124,87906139,542,118531
seismic_size100M,29,5,265.174286,385126.000000,5458269.000000,6037725,87906139,6381,118531
seismic_size100M,29,6,235.653259,984600.000000,5458269.000000,15719322,87906139,20273,118531
seismic_size100M,29,bestNN,233.917648,1555019.000000,5458269.000000,24993199,87906139,34689,118531
seismic_size100M,30,0,349.100739,949.000000,5895751.000000,1177,90786274,1,118531
seismic_size100M,30,1,346.659485,19672.000000,5895751.000000,12233,90786274,4,118531
seismic_size100M,30,2,338.381958,20545.000000,5895751.000000,28298,90786274,12,118531
seismic_size100M,30,3,327.862946,20915.000000,5895751.000000,36819,90786274,23,118531
seismic_size100M,30,4,325.234375,20919.000000,5895751.000000,39551,90786274,25,118531
seismic_size100M,30,5,323.505737,21148.000000,5895751.000000,45610,90786274,32,118531
seismic_size100M,30,6,311.974762,21157.000000,5895751.000000,48505,90786274,33,118531
seismic_size100M,30,7,294.231903,21165.000000,5895751.000000,51281,90786274,36,118531
seismic_size100M,30,8,290.046600,21929.000000,5895751.000000,65536,90786274,49,118531
seismic_size100M,30,9,278.582031,35506.000000,5895751.000000,276967,90786274,238,118531
seismic_size100M,30,10,276.594086,53493.000000,5895751.000000,563466,90786274,521,118531
seismic_size100M,30,11,265.912567,107452.000000,5895751.000000,1415357,90786274,1421,118531
seismic_size100M,30,bestNN,264.777130,633672.000000,5895751.000000,9692300,90786274,10923,118531
seismic_size100M,31,0,50.688370,895.000000,173776.000000,1749,43398,1,13594
seismic_size100M,31,1,46.881458,7540.000000,173776.000000,7887,43398,12,13594
seismic_size100M,31,2,42.424076,7624.000000,173776.000000,10694,43398,24,13594
seismic_size100M,31,3,40.707195,8264.000000,173776.000000,17669,43398,58,13594
seismic_size100M,31,bestNN,39.729523,15095.000000,173776.000000,34583,43398,511,13594
seismic_size100M,32,0,236.573212,1516.000000,4810976.000000,1943,70557127,1,117231
seismic_size100M,32,1,231.135620,22865.000000,4810976.000000,51949,70557127,33,117231
seismic_size100M,32,2,222.669876,27195.000000,4810976.000000,123730,70557127,88,117231
seismic_size100M,32,3,215.576721,30601.000000,4810976.000000,181875,70557127,132,117231
seismic_size100M,32,4,210.505920,51266.000000,4810976.000000,516662,70557127,392,117231
seismic_size100M,32,bestNN,204.439804,57677.000000,4810976.000000,621778,70557127,482,117231
seismic_size100M,33,0,332.656982,1046.000000,5593339.000000,956,84947465,1,118392
seismic_size100M,33,1,330.965424,20420.000000,5593339.000000,12351,84947465,4,118392
seismic_size100M,33,2,326.219971,21274.000000,5593339.000000,28279,84947465,14,118392
seismic_size100M,33,3,280.498169,21365.000000,5593339.000000,32642,84947465,19,118392
seismic_size100M,33,4,273.486023,21509.000000,5593339.000000,37551,84947465,25,118392
seismic_size100M,33,5,267.132812,56404.000000,5593339.000000,598050,84947465,561,118392
seismic_size100M,33,6,263.343231,152812.000000,5593339.000000,2134193,84947465,2140,118392
seismic_size100M,33,bestNN,245.792648,231370.000000,5593339.000000,3388364,84947465,3550,118392
seismic_size100M,34,0,191.551880,959.000000,3114235.000000,1257,44616255,1,104815
seismic_size100M,34,1,186.545624,18763.000000,3114235.000000,25414,44616255,4,104815
seismic_size100M,34,2,185.000168,18968.000000,3114235.000000,31011,44616255,14,104815
seismic_size100M,34,3,169.286560,19141.000000,3114235.000000,36477,44616255,19,104815
seismic_size100M,34,4,159.314789,19518.000000,3114235.000000,44996,44616255,22,104815
seismic_size100M,34,5,155.548447,25270.000000,3114235.000000,134913,44616255,86,104815
seismic_size100M,34,6,152.066559,29905.000000,3114235.000000,209297,44616255,135,104815
seismic_size100M,34,7,148.330139,41231.000000,3114235.000000,384411,44616255,261,104815
seismic_size100M,34,bestNN,139.348999,100297.000000,3114235.000000,1307930,44616255,1025,104815
seismic_size100M,35,0,215.506851,1044.000000,3238261.000000,1788,48572326,1,110946
seismic_size100M,35,1,188.022675,22706.000000,3238261.000000,24660,48572326,5,110946
seismic_size100M,35,2,156.024368,23631.000000,3238261.000000,42752,48572326,22,110946
seismic_size100M,35,3,117.544205,23668.000000,3238261.000000,45832,48572326,26,110946
seismic_size100M,35,4,102.715378,26312.000000,3238261.000000,89759,48572326,61,110946
seismic_size100M,35,bestNN,74.705688,27099.000000,3238261.000000,105412,48572326,71,110946
seismic_size100M,36,0,324.525574,1382.000000,5292670.000000,1844,79246097,1,118487
seismic_size100M,36,1,318.302246,22729.000000,5292670.000000,27583,79246097,7,118487
seismic_size100M,36,2,280.401428,22772.000000,5292670.000000,31055,79246097,12,118487
seismic_size100M,36,3,266.516052,23038.000000,5292670.000000,38194,79246097,19,118487
seismic_size100M,36,4,230.247421,23587.000000,5292670.000000,49751,79246097,29,118487
seismic_size100M,36,bestNN,212.423615,58458.000000,5292670.000000,629175,79246097,503,118487
seismic_size100M,37,0,297.634521,463.000000,4665954.000000,496,72169500,1,118503
seismic_size100M,37,1,279.711121,32044.000000,4665954.000000,1766,72169500,2,118503
seismic_size100M,37,2,279.071716,34654.000000,4665954.000000,7614,72169500,6,118503
seismic_size100M,37,3,271.194641,38179.000000,4665954.000000,16279,72169500,20,118503
seismic_size100M,37,4,232.295532,39803.000000,4665954.000000,21271,72169500,28,118503
seismic_size100M,37,5,214.977859,75509.000000,4665954.000000,162687,72169500,264,118503
seismic_size100M,37,6,214.859619,107779.000000,4665954.000000,418863,72169500,687,118503
seismic_size100M,37,7,206.911484,168888.000000,4665954.000000,1253345,72169500,2178,118503
seismic_size100M,37,8,206.323792,467032.000000,4665954.000000,6146830,72169500,9495,118503
seismic_size100M,37,bestNN,183.032578,1318673.000000,4665954.000000,20512031,72169500,30588,118503
seismic_size100M,38,0,311.957031,761.000000,6073997.000000,915,90811922,1,118531
seismic_size100M,38,1,303.653046,19246.000000,6073997.000000,17085,90811922,7,118531
seismic_size100M,38,2,285.117371,19455.000000,6073997.000000,22984,90811922,20,118531
seismic_size100M,38,3,274.789764,21121.000000,6073997.000000,49483,90811922,57,118531
seismic_size100M,38,4,264.582886,23224.000000,6073997.000000,82927,90811922,100,118531
seismic_size100M,38,bestNN,235.506332,29407.000000,6073997.000000,177047,90811922,223,118531
seismic_size100M,39,0,19.183435,663.000000,21242.000000,1053,1330,1,817
seismic_size100M,39,bestNN,15.378175,11237.000000,21242.000000,1300,1330,23,817
seismic_size100M,40,0,40.295788,1921.000000,181376.000000,1584,233902,1,14187
seismic_size100M,40,1,38.957020,8579.000000,181376.000000,14036,233902,23,14187
seismic_size100M,40,2,38.496246,11327.000000,181376.000000,37972,233902,107,14187
seismic_size100M,40,bestNN,38.377563,16936.000000,181376.000000,76280,233902,383,14187
seismic_size100M,41,0,267.267334,591.000000,5604542.000000,573,88054477,1,118531
seismic_size100M,41,1,264.856323,29348.000000,5604542.000000,146105,88054477,217,118531
seismic_size100M,41,2,246.992020,35714.000000,5604542.000000,239829,88054477,342,118531
seismic_size100M,41,bestNN,230.950195,217713.000000,5604542.000000,3017376,88054477,3649,118531
seismic_size100M,42,0,45.312759,1531.000000,217081.000000,1958,1040026,1,15200
seismic_size100M,42,bestNN,43.909760,10160.000000,217081.000000,41301,1040026,31,15200
seismic_size100M,43,0,343.872253,1707.000000,5642426.000000,1557,87079804,1,118531
seismic_size100M,43,1,336.354919,21739.000000,5642426.000000,27120,87079804,4,118531
seismic_size100M,43,2,326.238037,21746.000000,5642426.000000,29786,87079804,10,118531
seismic_size100M,43,3,295.374390,21751.000000,5642426.000000,32470,87079804,13,118531
seismic_size100M,43,4,287.280975,21987.000000,5642426.000000,37526,87079804,19,118531
seismic_size100M,43,5,270.113220,23451.000000,5642426.000000,55873,87079804,26,118531
seismic_size100M,43,6,262.614166,33075.000000,5642426.000000,163173,87079804,100,118531
seismic_size100M,43,7,256.117188,35525.000000,5642426.000000,197003,87079804,119,118531
seismic_size100M,43,8,251.451080,63147.000000,5642426.000000,609954,87079804,422,118531
seismic_size100M,43,9,247.430603,402742.000000,5642426.000000,5680298,87079804,5893,118531
seismic_size100M,43,10,236.955292,1220100.000000,5642426.000000,18511147,87079804,24554,118531
seismic_size100M,43,bestNN,234.859024,1983475.000000,5642426.000000,30941319,87079804,43648,118531
seismic_size100M,44,0,356.398956,1369.000000,5691833.000000,1743,85145328,1,118529
seismic_size100M,44,1,354.793976,21520.000000,5691833.000000,20470,85145328,7,118529
seismic_size100M,44,2,320.366913,21869.000000,5691833.000000,28305,85145328,10,118529
seismic_size100M,44,3,309.058533,22363.000000,5691833.000000,37864,85145328,20,118529
seismic_size100M,44,4,302.172882,22372.000000,5691833.000000,40698,85145328,24,118529
seismic_size100M,44,5,293.429352,34126.000000,5691833.000000,214041,85145328,205,118529
seismic_size100M,44,6,274.386810,57235.000000,5691833.000000,559368,85145328,581,118529
seismic_size100M,44,bestNN,234.382065,904768.000000,5691833.000000,13201671,85145328,17942,118529
seismic_size100M,45,0,175.755478,1049.000000,3831753.000000,1355,56285633,1,112048
seismic_size100M,45,1,174.377136,26080.000000,3831753.000000,115547,56285633,79,112048
seismic_size100M,45,bestNN,173.903885,32981.000000,3831753.000000,223283,56285633,163,112048
seismic_size100M,46,0,334.308380,1174.000000,5918459.000000,1660,87940549,1,118531
seismic_size100M,46,1,319.145264,21163.000000,5918459.000000,16372,87940549,2,118531
seismic_size100M,46,2,293.328278,21289.000000,5918459.000000,20781,87940549,5,118531
seismic_size100M,46,3,288.367432,23352.000000,5918459.000000,51609,87940549,33,118531
seismic_size100M,46,4,285.592224,27343.000000,5918459.000000,108448,87940549,76,118531
seismic_size100M,46,5,245.554688,35908.000000,5918459.000000,229360,87940549,180,118531
seismic_size100M,46,bestNN,237.057343,1811860.000000,5918459.000000,27460380,87940549,39995,118531
seismic_size100M,47,0,149.230743,1038.000000,1350554.000000,1474,12650232,1,94176
seismic_size100M,47,1,134.498993,19653.000000,1350554.000000,30852,12650232,11,94176
seismic_size100M,47,2,131.441452,20753.000000,1350554.000000,50310,12650232,26,94176
seismic_size100M,47,3,128.246277,21089.000000,1350554.000000,58173,12650232,30,94176
seismic_size100M,47,4,126.175529,21092.000000,1350554.000000,60929,12650232,33,94176
seismic_size100M,47,5,124.741333,25073.000000,1350554.000000,125110,12650232,81,94176
seismic_size100M,47,6,123.317848,26843.000000,1350554.000000,155273,12650232,103,94176
seismic_size100M,47,7,122.851837,39140.000000,1350554.000000,349415,12650232,251,94176
seismic_size100M,47,8,122.745964,41457.000000,1350554.000000,386548,12650232,279,94176
seismic_size100M,47,9,121.612305,56033.000000,1350554.000000,611054,12650232,466,94176
seismic_size100M,47,bestNN,119.198273,64626.000000,1350554.000000,744898,12650232,577,94176
seismic_size100M,48,0,162.897049,552.000000,3059549.000000,605,41727330,1,109866
seismic_size100M,48,1,156.108871,22531.000000,3059549.000000,17083,41727330,6,109866
seismic_size100M,48,bestNN,154.584595,50839.000000,3059549.000000,452836,41727330,407,109866
seismic_size100M,49,0,267.828857,882.000000,5005439.000000,1085,74113236,1,118210
seismic_size100M,49,1,253.830795,20873.000000,5005439.000000,24490,74113236,2,118210
seismic_size100M,49,2,249.599487,22242.000000,5005439.000000,46096,74113236,23,118210
seismic_size100M,49,3,246.044937,23311.000000,5005439.000000,62692,74113236,32,118210
seismic_size100M,49,4,244.816513,23903.000000,5005439.000000,73750,74113236,40,118210
seismic_size100M,49,5,243.728012,24069.000000,5005439.000000,78857,74113236,44,118210
seismic_size100M,49,6,241.422394,24606.000000,5005439.000000,88999,74113236,54,118210
seismic_size100M,49,7,239.606750,24848.000000,5005439.000000,95403,74113236,58,118210
seismic_size100M,49,bestNN,230.294800,27141.000000,5005439.000000,130936,74113236,81,118210
seismic_size100M,50,0,341.204865,1379.000000,2839826.000000,1955,42575796,1,103919
seismic_size100M,50,1,252.205856,14445.000000,2839826.000000,6309,42575796,2,103919
seismic_size100M,50,2,131.852112,15696.000000,2839826.000000,22278,42575796,12,103919
seismic_size100M,50,3,102.039841,16911.000000,2839826.000000,39391,42575796,29,103919
seismic_size100M,50,4,100.637604,39007.000000,2839826.000000,329925,42575796,341,103919
seismic_size100M,50,5,83.989288,39334.000000,2839826.000000,337597,42575796,352,103919
seismic_size100M,50,6,66.282341,70877.000000,2839826.000000,805808,42575796,992,103919
seismic_size100M,50,7,57.726410,84887.000000,2839826.000000,1025295,42575796,1325,103919
seismic_size100M,50,8,51.004269,411659.000000,2839826.000000,6390137,42575796,10232,103919
seismic_size100M,50,bestNN,41.126862,574191.000000,2839826.000000,9114134,42575796,15316,103919
seismic_size100M,51,0,375.310638,356.000000,6563791.000000,314,98862497,1,118531
seismic_size100M,51,1,372.794525,18901.000000,6563791.000000,9151,98862497,5,118531
seismic_size100M,51,2,359.402863,18950.000000,6563791.000000,12144,98862497,16,118531
seismic_size100M,51,3,343.068054,19254.000000,6563791.000000,18144,98862497,22,118531
seismic_size100M,51,4,318.835724,20158.000000,6563791.000000,30838,98862497,40,118531
seismic_size100M,51,5,307.519196,24655.000000,6563791.000000,84098,98862497,113,118531
seismic_size100M,51,6,300.837494,150815.000000,6563791.000000,1667053,98862497,2313,118531
seismic_size100M,51,7,293.217682,170924.000000,6563791.000000,1944044,98862497,2665,118531
seismic_size100M,51,8,290.506439,553862.000000,6563791.000000,7358713,98862497,10221,118531
seismic_size100M,51,9,287.009155,1016853.000000,6563791.000000,14702394,98862497,19700,118531
seismic_size100M,51,10,286.450409,2145525.000000,6563791.000000,32729855,98862497,46672,118531
seismic_size100M,51,11,281.888580,2368785.000000,6563791.000000,36159131,98862497,51546,118531
seismic_size100M,51,bestNN,278.894806,3018589.000000,6563791.000000,45747761,98862497,64081,118531
seismic_size100M,52,0,275.450775,683.000000,4954926.000000,777,76845706,1,118530
seismic_size100M,52,1,274.835754,19078.000000,4954926.000000,9560,76845706,8,118530
seismic_size100M,52,2,258.127014,19334.000000,4954926.000000,15794,76845706,18,118530
seismic_size100M,52,3,236.844330,19592.000000,4954926.000000,21922,76845706,32,118530
seismic_size100M,52,bestNN,202.529999,29027.000000,4954926.000000,158805,76845706,241,118530
seismic_size100M,53,0,4.380593,257.000000,256661.000000,272,2980,1,36853
seismic_size100M,53,1,3.956440,11267.000000,256661.000000,1303,2980,109,36853
seismic_size100M,53,bestNN,3.525308,11314.000000,256661.000000,1385,2980,169,36853
seismic_size100M,54,0,72.857826,871.000000,167498.000000,1503,20404,1,16594
seismic_size100M,54,1,65.676224,6393.000000,167498.000000,2950,20404,5,16594
seismic_size100M,54,2,62.442024,6589.000000,167498.000000,4577,20404,20,16594
seismic_size100M,54,3,59.425587,7614.000000,167498.000000,8346,20404,69,16594
seismic_size100M,54,bestNN,58.328922,8502.000000,167498.000000,10637,20404,117,16594
seismic_size100M,55,0,113.161438,275.000000,832008.000000,233,6446616,1,70845
seismic_size100M,55,1,103.006271,14286.000000,832008.000000,9074,6446616,6,70845
seismic_size100M,55,bestNN,101.231216,16087.000000,832008.000000,40864,6446616,38,70845
seismic_size100M,56,0,346.103851,1421.000000,5807842.000000,1863,93301360,1,118531
seismic_size100M,56,1,338.608978,20285.000000,5807842.000000,35805,93301360,10,118531
seismic_size100M,56,2,336.401611,20313.000000,5807842.000000,39062,93301360,14,118531
seismic_size100M,56,3,326.587280,20433.000000,5807842.000000,44031,93301360,19,118531
seismic_size100M,56,4,311.693939,22713.000000,5807842.000000,83512,93301360,44,118531
seismic_size100M,56,5,306.070251,41754.000000,5807842.000000,392284,93301360,268,118531
seismic_size100M,56,6,301.368774,48104.000000,5807842.000000,751825,93301360,564,118531
seismic_size100M,56,7,286.716888,49258.000000,5807842.000000,773672,93301360,582,118531
seismic_size100M,56,bestNN,261.213593,337057.000000,5807842.000000,5422135,93301360,6175,118531
seismic_size100M,57,0,52.718582,939.000000,102816.000000,1568,25141,1,8120
seismic_size100M,57,1,51.218464,8226.000000,102816.000000,6906,25141,23,8120
seismic_size100M,57,2,50.732449,8232.000000,102816.000000,8810,25141,34,8120
seismic_size100M,57,3,48.379272,8236.000000,102816.000000,10661,25141,43,8120
seismic_size100M,57,4,40.106232,8249.000000,102816.000000,12454,25141,50,8120
seismic_size100M,57,bestNN,38.210857,9854.000000,102816.000000,19925,25141,164,8120
seismic_size100M,58,0,334.973022,772.000000,5990307.000000,952,92632996,1,118531
seismic_size100M,58,1,326.819061,19754.000000,5990307.000000,18634,92632996,8,118531
seismic_size100M,58,2,326.347839,21719.000000,5990307.000000,52492,92632996,37,118531
seismic_size100M,58,3,317.374023,22134.000000,5990307.000000,62247,92632996,47,118531
seismic_size100M,58,4,312.368774,24081.000000,5990307.000000,96034,92632996,78,118531
seismic_size100M,58,bestNN,299.354858,352309.000000,5990307.000000,5248525,92632996,5635,118531
seismic_size100M,59,0,211.572403,1005.000000,4513818.000000,1832,72665024,1,118504
seismic_size100M,59,1,187.630493,22654.000000,4513818.000000,57621,72665024,49,118504
seismic_size100M,59,bestNN,184.138977,162057.000000,4513818.000000,2491701,72665024,3278,118504
seismic_size100M,60,0,336.629517,1247.000000,5468684.000000,1618,86979292,1,118523
seismic_size100M,60,1,331.787445,23532.000000,5468684.000000,22951,86979292,2,118523
seismic_size100M,60,2,298.722046,23753.000000,5468684.000000,29305,86979292,8,118523
seismic_size100M,60,3,283.948425,25831.000000,5468684.000000,63487,86979292,29,118523
seismic_size100M,60,4,262.360687,25984.000000,5468684.000000,68617,86979292,36,118523
seismic_size100M,60,5,251.976089,89042.000000,5468684.000000,1059715,86979292,777,118523
seismic_size100M,60,6,250.877747,110036.000000,5468684.000000,1395864,86979292,1076,118523
seismic_size100M,60,7,250.489227,199437.000000,5468684.000000,2821491,86979292,2534,118523
seismic_size100M,60,8,250.145996,603130.000000,5468684.000000,9423254,86979292,10976,118523
seismic_size100M,60,9,245.160522,720636.000000,5468684.000000,11362739,86979292,13743,118523
seismic_size100M,60,10,244.057724,805788.000000,5468684.000000,12778174,86979292,15849,118523
seismic_size100M,60,11,242.222580,1432621.000000,5468684.000000,23088015,86979292,31852,118523
seismic_size100M,60,bestNN,232.344788,1834810.000000,5468684.000000,29757947,86979292,42215,118523
seismic_size100M,61,0,37.870506,1066.000000,98796.000000,1947,9884,1,7448
seismic_size100M,61,1,37.720089,6287.000000,98796.000000,3823,9884,10,7448
seismic_size100M,61,2,35.326725,6503.000000,98796.000000,5161,9884,31,7448
seismic_size100M,61,bestNN,35.213726,6834.000000,98796.000000,6114,9884,64,7448
seismic_size100M,62,0,188.321365,1183.000000,3407307.000000,1470,50410450,1,112870
seismic_size100M,62,1,186.893616,20182.000000,3407307.000000,16260,50410450,4,112870
seismic_size100M,62,bestNN,164.849854,20248.000000,3407307.000000,20042,50410450,6,112870
seismic_size100M,63,0,267.697113,1200.000000,4802865.000000,1651,76613943,1,117782
seismic_size100M,63,1,247.871811,19447.000000,4802865.000000,18479,76613943,3,117782
seismic_size100M,63,2,242.891113,20327.000000,4802865.000000,35271,76613943,17,117782
seismic_size100M,63,3,231.424072,21539.000000,4802865.000000,57702,76613943,31,117782
seismic_size100M,63,4,217.138077,22090.000000,4802865.000000,69616,76613943,44,117782
seismic_size100M,63,5,216.891983,39555.000000,4802865.000000,366848,76613943,275,117782
seismic_size100M,63,6,212.790985,185765.000000,4802865.000000,2809548,76613943,2492,117782
seismic_size100M,63,7,208.447662,602249.000000,4802865.000000,9805309,76613943,10326,117782
seismic_size100M,63,bestNN,199.771698,1014497.000000,4802865.000000,16704150,76613943,19629,117782
seismic_size100M,64,0,148.034653,846.000000,2468283.000000,1149,34034574,1,106225
seismic_size100M,64,1,146.434494,19204.000000,2468283.000000,25572,34034574,9,106225
seismic_size100M,64,2,143.297379,19818.000000,2468283.000000,39173,34034574,21,106225
seismic_size100M,64,bestNN,143.089951,39663.000000,2468283.000000,377478,34034574,322,106225
seismic_size100M,65,0,359.445618,998.000000,5371832.000000,1167,87707962,1,118531
seismic_size100M,65,1,354.728302,20139.000000,5371832.000000,18073,87707962,4,118531
seismic_size100M,65,2,335.074066,20143.000000,5371832.000000,20892,87707962,6,118531
seismic_size100M,65,3,323.274567,20254.000000,5371832.000000,25508,87707962,7,118531
seismic_size100M,65,4,320.538910,20327.000000,5371832.000000,29628,87707962,14,118531
seismic_size100M,65,5,315.557220,20460.000000,5371832.000000,34602,87707962,20,118531
seismic_size100M,65,6,302.860870,21197.000000,5371832.000000,49228,87707962,30,118531
seismic_size100M,65,7,301.849213,24088.000000,5371832.000000,99812,87707962,79,118531
seismic_size100M,65,8,280.902283,25248.000000,5371832.000000,121629,87707962,96,118531
seismic_size100M,65,9,262.211548,25902.000000,5371832.000000,135610,87707962,113,118531
seismic_size100M,65,10,260.717926,35604.000000,5371832.000000,302393,87707962,277,118531
seismic_size100M,65,11,260.384766,209246.000000,5371832.000000,3222657,87707962,3972,118531
seismic_size100M,65,12,256.203918,249086.000000,5371832.000000,3892250,87707962,4870,118531
seismic_size100M,65,13,253.161942,296550.000000,5371832.000000,4694138,87707962,6034,118531
seismic_size100M,65,14,246.457184,316683.000000,5371832.000000,5039007,87707962,6562,118531
seismic_size100M,65,bestNN,230.624817,669935.000000,5371832.000000,10936953,87707962,15109,118531
seismic_size100M,66,0,28.700344,883.000000,112661.000000,1164,963905,1,5206
seismic_size100M,66,1,28.623796,6389.000000,112661.000000,25681,963905,13,5206
seismic_size100M,66,2,28.184715,6397.000000,112661.000000,28816,963905,16,5206
seismic_size100M,66,bestNN,27.769793,6479.000000,112661.000000,32893,963905,21,5206
seismic_size100M,67,0,76.457420,1104.000000,372831.000000,1369,1606697,1,33942
seismic_size100M,67,1,75.182007,8686.000000,372831.000000,14089,1606697,2,33942
seismic_size100M,67,2,74.596687,9821.000000,372831.000000,35934,1606697,22,33942
seismic_size100M,67,bestNN,73.658279,14299.000000,372831.000000,114666,1606697,80,33942
seismic_size100M,68,0,54.588379,1355.000000,130661.000000,1998,353883,1,10941
seismic_size100M,68,1,53.126808,7345.000000,130661.000000,22793,353883,13,10941
seismic_size100M,68,2,53.104488,7671.000000,130661.000000,31297,353883,19,10941
seismic_size100M,68,bestNN,47.850349,7866.000000,130661.000000,37001,353883,28,10941
seismic_size100M,69,0,324.527985,451.000000,5409634.000000,458,85606393,1,118520
seismic_size100M,69,1,322.947388,22031.000000,5409634.000000,17560,85606393,8,118520
seismic_size100M,69,2,298.446594,22043.000000,5409634.000000,20696,85606393,9,118520
seismic_size100M,69,3,291.091614,22127.000000,5409634.000000,24751,85606393,13,118520
seismic_size100M,69,4,280.835876,23248.000000,5409634.000000,44913,85606393,31,118520
seismic_size100M,69,5,274.768036,60663.000000,5409634.000000,645378,85606393,653,118520
seismic_size100M,69,6,273.703552,303553.000000,5409634.000000,4628824,85606393,4743,118520
seismic_size100M,69,bestNN,263.900146,347699.000000,5409634.000000,5357181,85606393,5581,118520
seismic_size100M,70,bestNN,15.704007,1177.000000,71322.000000,1748,546187,1,3300
seismic_size100M,71,0,234.395096,1223.000000,4581153.000000,1746,69526498,1,118292
seismic_size100M,71,1,229.957047,19901.000000,4581153.000000,20304,69526498,3,118292
seismic_size100M,71,2,225.929962,20651.000000,4581153.000000,35635,69526498,13,118292
seismic_size100M,71,bestNN,224.647247,24201.000000,4581153.000000,97509,69526498,60,118292
seismic_size100M,72,0,189.544647,365.000000,3260362.000000,372,49517117,1,109734
seismic_size100M,72,1,122.367760,20254.000000,3260362.000000,10787,49517117,24,109734
seismic_size100M,72,bestNN,82.840973,21460.000000,3260362.000000,30982,49517117,68,109734
seismic_size100M,73,0,26.794441,756.000000,43720.000000,1032,10860,1,3229
seismic_size100M,73,1,25.192814,5000.000000,43720.000000,4907,10860,19,3229
seismic_size100M,73,bestNN,23.376053,5045.000000,43720.000000,5979,10860,34,3229
seismic_size100M,74,0,49.954937,375.000000,38436.000000,470,9890,1,2858
seismic_size100M,74,1,38.256660,4863.000000,38436.000000,3647,9890,5,2858
seismic_size100M,74,2,32.158726,4870.000000,38436.000000,5061,9890,11,2858
seismic_size100M,74,3,31.032932,4874.000000,38436.000000,5807,9890,24,2858
seismic_size100M,74,bestNN,24.642422,4885.000000,38436.000000,6484,9890,30,2858
seismic_size100M,75,0,107.048309,777.000000,908830.000000,995,6048452,1,81539
seismic_size100M,75,1,106.679367,19905.000000,908830.000000,28662,6048452,8,81539
seismic_size100M,75,2,106.365997,20808.000000,908830.000000,46512,6048452,23,81539
seismic_size100M,75,3,106.138916,21444.000000,908830.000000,60437,6048452,36,81539
seismic_size100M,75,4,104.963371,26678.000000,908830.000000,153015,6048452,103,81539
seismic_size100M,75,bestNN,104.735001,42138.000000,908830.000000,419081,6048452,314,81539
seismic_size100M,76,0,276.127197,470.000000,4425837.000000,568,70710368,1,118309
seismic_size100M,76,1,274.166229,19566.000000,4425837.000000,14552,70710368,10,118309
seismic_size100M,76,2,240.444580,19825.000000,4425837.000000,21872,70710368,18,118309
seismic_size100M,76,3,235.687378,19834.000000,4425837.000000,25012,70710368,19,118309
seismic_size100M,76,4,235.201996,20129.000000,4425837.000000,32622,70710368,26,118309
seismic_size100M,76,5,207.183304,20779.000000,4425837.000000,46055,70710368,40,118309
seismic_size100M,76,6,197.142700,23936.000000,4425837.000000,101619,70710368,89,118309
seismic_size100M,76,7,191.392441,29200.000000,4425837.000000,196744,70710368,176,118309
seismic_size100M,76,8,186.654785,387695.000000,4425837.000000,6421581,70710368,6968,118309
seismic_size100M,76,bestNN,175.740082,1536458.000000,4425837.000000,25825516,70710368,36725,118309
seismic_size100M,77,0,186.057419,809.000000,2941027.000000,1009,43260861,1,106924
seismic_size100M,77,1,170.012955,20131.000000,2941027.000000,18775,43260861,6,106924
seismic_size100M,77,2,152.308304,20807.000000,2941027.000000,31316,43260861,18,106924
seismic_size100M,77,3,149.001785,27815.000000,2941027.000000,140285,43260861,109,106924
seismic_size100M,77,4,146.057388,30409.000000,2941027.000000,182393,43260861,140,106924
seismic_size100M,77,5,136.673813,42044.000000,2941027.000000,367270,43260861,287,106924
seismic_size100M,77,bestNN,132.449081,85545.000000,2941027.000000,1062037,43260861,877,106924
seismic_size100M,78,0,348.978119,759.000000,5434574.000000,958,88058260,1,118531
seismic_size100M,78,1,300.616791,18857.000000,5434574.000000,13164,88058260,8,118531
seismic_size100M,78,2,282.527679,19201.000000,5434574.000000,20959,88058260,20,118531
seismic_size100M,78,3,279.799408,20008.000000,5434574.000000,35902,88058260,33,118531
seismic_size100M,78,4,273.166077,22960.000000,5434574.000000,83158,88058260,97,118531
seismic_size100M,78,5,262.009064,38747.000000,5434574.000000,335165,88058260,424,118531
seismic_size100M,78,6,259.107239,77009.000000,5434574.000000,945325,88058260,1205,118531
seismic_size100M,78,7,255.261627,199942.000000,5434574.000000,2912079,88058260,3588,118531
seismic_size100M,78,8,239.671982,283026.000000,5434574.000000,4276138,88058260,5313,118531
seismic_size100M,78,bestNN,233.848022,2131846.000000,5434574.000000,35410035,88058260,51791,118531
seismic_size100M,79,0,348.572662,453.000000,6281428.000000,492,100000445,1,118531
seismic_size100M,79,1,326.722595,21383.000000,6281428.000000,21292,100000445,27,118531
seismic_size100M,79,2,310.748169,40811.000000,6281428.000000,315088,100000445,482,118531
seismic_size100M,79,3,300.256470,80897.000000,6281428.000000,924095,100000445,1422,118531
seismic_size100M,79,bestNN,298.279510,781020.000000,6281428.000000,11903584,100000445,17709,118531
seismic_size100M,80,0,331.843353,1368.000000,5640826.000000,1852,87762802,1,118531
seismic_size100M,80,1,323.285950,19463.000000,5640826.000000,14837,87762802,3,118531
seismic_size100M,80,2,312.601929,19767.000000,5640826.000000,22137,87762802,6,118531
seismic_size100M,80,3,309.201752,19855.000000,5640826.000000,26193,87762802,8,118531
seismic_size100M,80,4,304.637482,20536.000000,5640826.000000,39421,87762802,16,118531
seismic_size100M,80,5,298.821594,21628.000000,5640826.000000,58728,87762802,35,118531
seismic_size100M,80,6,286.675446,23952.000000,5640826.000000,96469,87762802,68,118531
seismic_size100M,80,bestNN,281.293365,111995.000000,5640826.000000,1455130,87762802,1410,118531
seismic_size100M,81,0,130.859955,1245.000000,1049337.000000,1843,6171502,1,96959
seismic_size100M,81,bestNN,128.467712,19822.000000,1049337.000000,48955,6171502,33,96959
seismic_size100M,82,0,355.881714,354.000000,6055401.000000,295,99670614,1,118531
seismic_size100M,82,1,322.130768,18709.000000,6055401.000000,8529,99670614,5,118531
seismic_size100M,82,2,321.232819,18831.000000,6055401.000000,13437,99670614,11,118531
seismic_size100M,82,3,318.982849,18847.000000,6055401.000000,16370,99670614,17,118531
seismic_size100M,82,4,274.818695,18939.000000,6055401.000000,20609,99670614,22,118531
seismic_size100M,82,5,266.685272,91304.000000,6055401.000000,1227751,99670614,1535,118531
seismic_size100M,82,bestNN,264.994354,1493398.000000,6055401.000000,24737072,99670614,36736,118531
seismic_size100M,83,0,321.722290,705.000000,6449670.000000,896,99771311,1,118531
seismic_size100M,83,1,316.672089,19179.000000,6449670.000000,10618,99771311,8,118531
seismic_size100M,83,2,304.656372,45459.000000,6449670.000000,266964,99771311,298,118531
seismic_size100M,83,3,295.690857,51748.000000,6449670.000000,347736,99771311,403,118531
seismic_size100M,83,4,288.297577,142951.000000,6449670.000000,1719483,99771311,2263,118531
seismic_size100M,83,bestNN,271.735626,273374.000000,6449670.000000,3812404,99771311,5292,118531
seismic_size100M,84,0,265.148132,1157.000000,4529433.000000,1293,68424807,1,114397
seismic_size100M,84,1,259.243317,20709.000000,4529433.000000,16848,68424807,2,114397
seismic_size100M,84,2,252.423401,21474.000000,4529433.000000,29440,68424807,8,114397
seismic_size100M,84,3,245.119873,21491.000000,4529433.000000,32065,68424807,10,114397
seismic_size100M,84,4,221.769760,21547.000000,4529433.000000,35280,68424807,15,114397
seismic_size100M,84,5,218.028458,25552.000000,4529433.000000,89025,68424807,64,114397
seismic_size100M,84,6,217.603622,35697.000000,4529433.000000,226542,68424807,165,114397
seismic_size100M,84,7,208.929230,66484.000000,4529433.000000,651758,68424807,502,114397
seismic_size100M,84,8,207.859756,84112.000000,4529433.000000,919435,68424807,712,114397
seismic_size100M,84,9,206.173126,91145.000000,4529433.000000,1030150,68424807,811,114397
seismic_size100M,84,10,203.178268,93459.000000,4529433.000000,1069490,68424807,842,114397
seismic_size100M,84,bestNN,190.599655,95421.000000,4529433.000000,1102915,68424807,868,114397
seismic_size100M,85,0,249.959396,1409.000000,5281964.000000,1787,69966807,1,116420
seismic_size100M,85,1,235.525513,22232.000000,5281964.000000,31490,69966807,13,116420
seismic_size100M,85,2,228.513290,23130.000000,5281964.000000,47328,69966807,24,116420
seismic_size100M,85,3,226.125595,23948.000000,5281964.000000,61716,69966807,36,116420
seismic_size100M,85,4,207.902100,32108.000000,5281964.000000,180168,69966807,134,116420
seismic_size100M,85,5,206.216415,55681.000000,5281964.000000,494334,69966807,394,116420
seismic_size100M,85,6,201.224869,154917.000000,5281964.000000,1866098,69966807,1530,116420
seismic_size100M,85,bestNN,196.946655,295601.000000,5281964.000000,3829396,69966807,3239,116420
seismic_size100M,86,0,289.206421,372.000000,5070489.000000,319,80696139,1,118531
seismic_size100M,86,1,288.676544,18834.000000,5070489.000000,8825,80696139,8,118531
seismic_size100M,86,2,269.934387,18845.000000,5070489.000000,11821,80696139,15,118531
seismic_size100M,86,3,268.911499,18892.000000,5070489.000000,15260,80696139,23,118531
seismic_size100M,86,4,257.820282,19294.000000,5070489.000000,23314,80696139,36,118531
seismic_size100M,86,5,244.468414,20118.000000,5070489.000000,37674,80696139,64,118531
seismic_size100M,86,6,242.076050,26370.000000,5070489.000000,130947,80696139,225,118531
seismic_size100M,86,bestNN,213.195343,34605.000000,5070489.000000,252126,80696139,422,118531
seismic_size100M,87,0,342.629272,527.000000,5842423.000000,515,90383556,1,118531
seismic_size100M,87,1,254.984207,18742.000000,5842423.000000,7916,90383556,7,118531
seismic_size100M,87,2,242.184891,19799.000000,5842423.000000,24549,90383556,34,118531
seismic_size100M,87,3,240.614105,59710.000000,5842423.000000,613133,90383556,1128,118531
seismic_size100M,87,4,239.830750,69603.000000,5842423.000000,771809,90383556,1434,118531
seismic_size100M,87,bestNN,236.235443,139138.000000,5842423.000000,1868950,90383556,3226,118531
seismic_size100M,88,0,8.355797,1475.000000,16358.000000,1800,17495,1,756
seismic_size100M,88,1,8.143166,5635.000000,16358.000000,10262,17495,19,756
seismic_size100M,88,bestNN,8.002316,6504.000000,16358.000000,14633,17495,60,756
seismic_size100M,89,0,233.850723,1063.000000,4500377.000000,1277,64009461,1,116335
seismic_size100M,89,1,225.243668,20073.000000,4500377.000000,9838,64009461,2,116335
seismic_size100M,89,2,208.538269,20527.000000,4500377.000000,18183,64009461,3,116335
seismic_size100M,89,3,205.994965,21446.000000,4500377.000000,32776,64009461,9,116335
seismic_size100M,89,4,202.363556,22279.000000,4500377.000000,46109,64009461,26,116335
seismic_size100M,89,5,200.080597,24902.000000,4500377.000000,80043,64009461,51,116335
seismic_size100M,89,6,200.004028,28196.000000,4500377.000000,121338,64009461,86,116335
seismic_size100M,89,7,198.320862,182515.000000,4500377.000000,2071780,64009461,1667,116335
seismic_size100M,89,8,196.075165,387313.000000,4500377.000000,4805781,64009461,4059,116335
seismic_size100M,89,9,193.587311,429394.000000,4500377.000000,5390042,64009461,4603,116335
seismic_size100M,89,bestNN,192.146820,579028.000000,4500377.000000,7416082,64009461,6637,116335
seismic_size100M,90,0,367.740265,434.000000,6929083.000000,478,99960787,1,118531
seismic_size100M,90,1,337.642273,19400.000000,6929083.000000,15237,99960787,18,118531
seismic_size100M,90,2,332.262238,20337.000000,6929083.000000,31629,99960787,44,118531
seismic_size100M,90,3,300.611420,23811.000000,6929083.000000,86330,99960787,106,118531
seismic_size100M,90,4,297.964233,87187.000000,6929083.000000,987057,99960787,1207,118531
seismic_size100M,90,5,292.939941,128662.000000,6929083.000000,1570736,99960787,1953,118531
seismic_size100M,90,bestNN,265.356140,499373.000000,6929083.000000,6973002,99960787,9556,118531
seismic_size100M,91,0,306.469360,495.000000,5578471.000000,541,78246168,1,118531
seismic_size100M,91,1,305.326355,22288.000000,5578471.000000,15474,78246168,18,118531
seismic_size100M,91,2,301.239227,22290.000000,5578471.000000,17992,78246168,23,118531
seismic_size100M,91,3,299.377716,22320.000000,5578471.000000,21101,78246168,24,118531
seismic_size100M,91,4,298.479523,22763.000000,5578471.000000,29045,78246168,32,118531
seismic_size100M,91,5,293.124146,23949.000000,5578471.000000,44396,78246168,46,118531
seismic_size100M,91,6,284.988922,25273.000000,5578471.000000,61925,78246168,64,118531
seismic_size100M,91,7,278.406616,26003.000000,5578471.000000,72672,78246168,73,118531
seismic_size100M,91,8,266.478760,27674.000000,5578471.000000,92737,78246168,90,118531
seismic_size100M,91,9,224.593353,52690.000000,5578471.000000,363306,78246168,387,118531
seismic_size100M,91,10,212.743286,746104.000000,5578471.000000,9143152,78246168,12652,118531
seismic_size100M,91,bestNN,203.694656,1111550.000000,5578471.000000,14028210,78246168,20259,118531
seismic_size100M,92,0,46.376030,759.000000,152913.000000,890,576951,1,9086
seismic_size100M,92,1,44.014778,7174.000000,152913.000000,22022,576951,11,9086
seismic_size100M,92,2,42.424774,7455.000000,152913.000000,27320,576951,19,9086
seismic_size100M,92,bestNN,41.139328,10152.000000,152913.000000,55657,576951,76,9086
seismic_size100M,93,bestNN,80.825027,1070.000000,424894.000000,1295,767184,1,45507
seismic_size100M,94,0,298.568665,500.000000,6706205.000000,493,94607173,1,118531
seismic_size100M,94,1,296.488068,20021.000000,6706205.000000,14402,94607173,11,118531
seismic_size100M,94,2,289.201721,20074.000000,6706205.000000,17857,94607173,21,118531
seismic_size100M,94,3,286.085175,20493.000000,6706205.000000,25371,94607173,28,118531
seismic_size100M,94,4,275.223297,22300.000000,6706205.000000,48662,94607173,65,118531
seismic_size100M,94,5,272.111603,24112.000000,6706205.000000,73046,94607173,94,118531
seismic_size100M,94,6,265.302338,30688.000000,6706205.000000,154911,94607173,215,118531
seismic_size100M,94,bestNN,244.842484,33126.000000,6706205.000000,186714,94607173,256,118531
seismic_size100M,95,0,14.971758,792.000000,32988.000000,1104,13925,1,1730
seismic_size100M,95,bestNN,14.888442,6744.000000,32988.000000,5689,13925,23,1730
seismic_size100M,96,0,50.020874,1176.000000,58601.000000,1713,16251,1,4905
seismic_size100M,96,bestNN,43.944080,5463.000000,58601.000000,7414,16251,16,4905
seismic_size100M,97,0,188.535706,1188.000000,4061050.000000,1390,52440952,1,110465
seismic_size100M,97,1,177.631714,22365.000000,4061050.000000,35991,52440952,18,110465
seismic_size100M,97,2,177.598541,22371.000000,4061050.000000,38803,52440952,18,110465
seismic_size100M,97,3,174.453278,23923.000000,4061050.000000,62295,52440952,35,110465
seismic_size100M,97,4,171.191727,24212.000000,4061050.000000,68846,52440952,40,110465
seismic_size100M,97,5,166.827576,25397.000000,4061050.000000,86777,52440952,51,110465
seismic_size100M,97,6,164.687561,47068.000000,4061050.000000,365094,52440952,243,110465
seismic_size100M,97,7,163.102097,93760.000000,4061050.000000,949358,52440952,728,110465
seismic_size100M,97,8,158.016006,100347.000000,4061050.000000,1034532,52440952,794,110465
seismic_size100M,97,bestNN,149.993851,107238.000000,4061050.000000,1125739,52440952,868,110465
seismic_size100M,98,0,58.800991,1304.000000,112657.000000,1885,41390,1,10482
seismic_size100M,98,1,57.191044,9146.000000,112657.000000,9824,41390,22,10482
seismic_size100M,98,2,56.542576,9713.000000,112657.000000,15700,41390,54,10482
seismic_size100M,98,bestNN,54.634544,10279.000000,112657.000000,19741,41390,99,10482
seismic_size100M,99,0,326.692261,1048.000000,6459780.000000,1354,98303037,1,118531
seismic_size100M,99,1,322.233734,22833.000000,6459780.000000,54846,98303037,54,118531
seismic_size100M,99,2,317.728912,22893.000000,6459780.000000,58591,98303037,59,118531
seismic_size100M,99,3,306.452332,25664.000000,6459780.000000,100973,98303037,117,118531
seismic_size100M,99,4,281.624969,27252.000000,6459780.000000,127233,98303037,146,118531
seismic_size100M,99,5,278.437988,150823.000000,6459780.000000,1908931,98303037,2594,118531
seismic_size100M,99,bestNN,268.975067,168316.000000,6459780.000000,2165217,98303037,2956,118531