dataset,size,numWit,numBins,level,width,coverage,bestExp,method
1.synthetic,10000,500,1000,0.950000,1.699965,0.148450000000000,adaptive,random
1.synthetic,50000,500,1000,0.950000,1.309625,0.099950000000000,adaptive,random
1.synthetic,100000,500,1000,0.950000,1.166543,0.087550000000000,adaptive,random
1.synthetic,500000,500,1000,0.950000,0.975237,0.065000000000000,adaptive,random
1.synthetic,1000000,500,1000,0.950000,0.856147,0.045000000000000,12,random
2.seismic,10000,500,1000,0.950000,4.425216,0.136150000000000,adaptive,random
2.seismic,50000,500,1000,0.950000,3.124139,0.086150000000000,adaptive,random
2.seismic,100000,500,1000,0.950000,2.772183,0.073800000000000,adaptive,random
2.seismic,500000,500,1000,0.950000,1.665693,0.065000000000000,3,random
2.seismic,1000000,500,1000,0.950000,1.893257,0.060000000000000,adaptive,random
3.sald,10000,500,1000,0.950000,3.520452,0.222800000000000,adaptive,random
3.sald,50000,500,1000,0.950000,2.355999,0.118650000000000,adaptive,random
3.sald,100000,500,1000,0.950000,1.941705,0.085550000000000,adaptive,random
3.sald,500000,500,1000,0.950000,1.237755,0.065000000000000,12,random
3.sald,1000000,500,1000,0.950000,1.749332,0.035000000000000,adaptive,random
4.deep1b,10000,500,1000,0.950000,4.015541,0.286300000000000,3,random
4.deep1b,50000,500,1000,0.950000,3.101841,0.161200000000000,12,random
4.deep1b,100000,500,1000,0.950000,2.821590,0.130700000000000,12,random
4.deep1b,500000,500,1000,0.950000,2.102834,0.060000000000000,12,random
4.deep1b,1000000,500,1000,0.950000,2.417867,0.085000000000000,12,random
