dataset,size,numWit,numBins,level,width,coverage,bestExp,method
1.synthetic,10000,500,1000,0.950000,2.515874,0.363450000000000,3,GNAT
1.synthetic,50000,500,1000,0.950000,2.123848,0.288400000000000,adaptive,GNAT
1.synthetic,100000,500,1000,0.950000,1.878070,0.271150000000000,adaptive,GNAT
1.synthetic,500000,500,1000,0.950000,1.257709,0.200000000000000,5,GNAT
1.synthetic,1000000,500,1000,0.950000,1.365242,0.170000000000000,adaptive,GNAT
2.seismic,10000,500,1000,0.950000,7.543548,0.273200000000000,adaptive,GNAT
2.seismic,50000,500,1000,0.950000,5.601620,0.211350000000000,adaptive,GNAT
2.seismic,100000,500,1000,0.950000,4.934563,0.190950000000000,adaptive,GNAT
2.seismic,500000,500,1000,0.950000,3.867457,0.145000000000000,adaptive,GNAT
2.seismic,1000000,500,1000,0.950000,2.547472,0.110000000000000,adaptive,GNAT
3.sald,10000,500,1000,0.950000,3.840485,0.536300000000000,3,GNAT
3.sald,50000,500,1000,0.950000,3.730259,0.483900000000000,adaptive,GNAT
3.sald,100000,500,1000,0.950000,3.718700,0.472100000000000,adaptive,GNAT
3.sald,500000,500,1000,0.950000,3.668286,0.415000000000000,12,GNAT
3.sald,1000000,500,1000,0.950000,3.515726,0.430000000000000,3,GNAT
4.deep1b,10000,500,1000,0.950000,3.996696,0.697200000000000,3,GNAT
4.deep1b,50000,500,1000,0.950000,4.179659,0.586000000000000,3,GNAT
4.deep1b,100000,500,1000,0.950000,4.051536,0.461750000000000,adaptive,GNAT
4.deep1b,500000,500,1000,0.950000,3.381207,0.280000000000000,12,GNAT
4.deep1b,1000000,500,1000,0.950000,3.262134,0.305000000000000,12,GNAT
